scottish_fold_lifespan	0	http://petcyclopedia.com/cat/40/scottish-fold/	1
scottish_fold_lifespan	0	http://www.pethealthnetwork.com/cat-health/cat-breeds/scottish-fold-0	1
scottish_fold_lifespan	0	http://www.necoichi.com/Blog/detail/id=4050	1
scottish_fold_lifespan	0	http://www.scottishfoldlove.com/scottish-fold-temperament-and-personality/	0
scottish_fold_lifespan	0	http://gulfnews.com/going-out/society/the-painful-life-of-a-scottish-fold-cat-1.2261004	0
scottish_fold_lifespan	0	http://customdessertshoppe.com/scottish-fold.html	1
scottish_fold_lifespan	0	http://www.scottishfoldlove.com/scottish-fold-life-expectancy/	1
scottish_fold_lifespan	0	http://www.britannica.com/story/dwarfism-in-cats-its-only-cute-til-someone-gets-hurt	0
scottish_fold_lifespan	0	http://www.floppycats.com/average-lifespan-of-a-ragdoll-cat.html	0
scottish_fold_lifespan	0	http://www.worldlifeexpectancy.com/cat-life-expectancy-scottish-fold	1
scottish_fold_lifespan	0	http://www.amazon.com/Scottish-Folds-Cats-Pets-Information-ebook/dp/B06XXV8PR2?tag=askcomdelta-20	0
scottish_fold_lifespan	0	http://www.petsworld.in/blog/list-of-cat-breeds-with-pictures.html	1
scottish_fold_lifespan	0	http://www.softschools.com/facts/cats/scottish_fold_facts/2634/	1
scottish_fold_lifespan	0	http://www.veterinarians.com/features/a-guide-to-the-scottish-fold-cat	0
scottish_fold_lifespan	0	http://www.purina.com/cats/cat-breeds/scottish-fold	1
scottish_fold_lifespan	0	http://www.thesprucepets.com/scottish-fold-profile-551898	1
scottish_fold_lifespan	0	http://www.youtube.com/watch?v=2QntT9owoV0	0
scottish_fold_lifespan	0	http://www.gopetsamerica.com/profiles/scottishfold.aspx	1
scottish_fold_lifespan	0	http://www.thehappycatsite.com/scottish-fold/	1
scottish_fold_lifespan	0	http://en.wikipedia.org/wiki/Scottish_Fold	1
scottish_fold_lifespan	0	http://www.anniemany.com/2013/10/scottish-fold-cat-sizeweight-and-life.html	1
scottish_fold_lifespan	0	http://www.petguide.com/breeds/cat/scottish-fold/	1
scottish_fold_lifespan	0	http://kittens-nyc.com/	1
scottish_fold_lifespan	0	http://www.hillspet.com/cat-care/cat-breeds/singapura	0
scottish_fold_lifespan	0	http://www.catscenterstage.com/breeds/scottish-fold2.shtml	1
scottish_fold_lifespan	0	http://www.bbc.com/news/uk-scotland-39717634	0
scottish_fold_lifespan	0	http://cats.animal-world.com/Cat-Mutations/ScottishFoldCat.php	1
scottish_fold_lifespan	0	http://www.mypetneedsthat.com/scottish-fold-cat/	1
scottish_fold_lifespan	0	http://www.lifesabeachcattery.com/	0
scottish_fold_lifespan	0	http://www.petful.com/cat-breeds/scottish-fold-cat-breed-profile/	1
scottish_fold_lifespan	0	http://www.petfinder.com/cat/oscar-44929916/on/richmond-hill/forgotten-ones-cat-rescue-and-adoption-inc-dot-on170/	0
scottish_fold_lifespan	0	http://www.basepaws.com/blog/polycystic-kidney-disease/	0
scottish_fold_lifespan	0	http://cattime.com/cat-breeds/scottish-fold-cats	1
scottish_fold_lifespan	0	http://www.mcleanvet.com/breed-of-the-month-scottish-fold/	1
scottish_fold_lifespan	0	http://www.ukpets.com/cat-breeds/scottish-fold	1
scottish_fold_lifespan	0	http://thescottishfold.com/more-about-the-scottish-fold-breed/scottish-fold-health-issues/	1
scottish_fold_lifespan	0	http://www.fanciers.com/breed-faqs/scottish-fold-faq.html	1
scottish_fold_lifespan	0	http://www.petcarerx.com/article/the-average-lifespan-of-a-cat-breed-by-breed-chart/1698	1
scottish_fold_lifespan	0	http://www.carealotpets.com/cat-breeds-CAT-ScottishFold.aspx	1
scottish_fold_lifespan	0	http://myfavpet.com/scottish-straight-cat/	0
scottish_fold_lifespan	0	http://www.eclinpath.com/hemostasis/transfusion-medicine/blood-types/	0
scottish_fold_lifespan	0	http://bowwowinsurance.com.au/cats/cat-breeds/scottish-fold/	0
scottish_fold_lifespan	0	http://www.amvetbio.com/products/5487dc33e37ec6e63a000006	0
scottish_fold_lifespan	0	http://www.dimensions.guide/element/scottish-fold-cat	1
scottish_fold_lifespan	0	http://www.bokus.com/bok/9781946286185/scottish-folds-cats-as-pets-scottish-fold-facts-information-where-to-buy-health-diet-lifespan-types-breeding-care-and-more-a-complete-sc/	0
scottish_fold_lifespan	0	http://www.catbreedslist.com/all-cat-breeds/Scottish-Fold.html	1
scottish_fold_lifespan	0	http://www.westhillvet.com/breed-month-scottish-fold/	1
scottish_fold_lifespan	0	http://catscottishfold.com/scottish-fold-life-expectancy/	1
scottish_fold_lifespan	0	http://www.circleoflifecattery.com/	0
scottish_fold_lifespan	0	http://www.pinterest.com/scottishfoldluv/scottish-folds/	0
scottish_fold_lifespan	0	http://www.petinsurance.com/healthzone/pet-articles/pet-breeds/5-Things-You-Didnt-Know-About-Scottish-Fold-Cats.aspx	0
scottish_fold_lifespan	0	http://www.catbreedsjunction.com/scottish-fold-cats.html	1
scottish_fold_lifespan	0	http://www.bestpetcarehub.com/scottish-fold-cat/	1
scottish_fold_lifespan	0	http://kittentoob.com/20-things-you-didnt-know-about-scottish-fold-cats/	1
scottish_fold_lifespan	0	http://www.youtube.com/watch?v=1ZUiUYhnPvo	0
scottish_fold_lifespan	0	http://www.petfinder.com/cat-breeds/scottish-fold/	0
scottish_fold_lifespan	0	http://thescottishfold.com/more-about-the-scottish-fold-breed/scottish-fold-temperament/	0
scottish_fold_lifespan	0	http://mybritishshorthair.com/british-shorthair-or-scottish-fold/	1
scottish_fold_lifespan	0	http://purrcraze.com/can-scottish-folds-be-left-alone	0
scottish_fold_lifespan	0	http://cfa.org/Breeds/BreedsSthruT/ScottishFold.aspx	0
scottish_fold_lifespan	0	http://www.burkesbackyard.com.au/fact-sheets/pets/pet-road-tests/cats/scottish-shorthair/	0
scottish_fold_lifespan	0	http://www.cheatsheet.com/money-career/most-expensive-cat-breeds-world.html/	0
scottish_fold_lifespan	0	http://myscottishfold.com/	0
scottish_fold_lifespan	0	http://www.thevetexpert.com/most-popular-cat-breeds-choosing-the-right-cat-for-you/	1
scottish_fold_lifespan	0	http://www.allafold.com/	0
scottish_fold_lifespan	0	http://www.vetstreet.com/cats/scottish-fold-highland-fold	1
scottish_fold_lifespan	0	http://catscottishfold.com/scottish-fold-munchkins-size-lifespan/	0
scottish_fold_lifespan	0	http://www.mnn.com/family/pets/blogs/ethics-cuteness-closer-look-12-trendy-cat-mutations	0
scottish_fold_lifespan	0	http://247wallst.com/special-report/2017/11/02/longest-and-shortest-living-cat-breeds/6/	1
scottish_fold_lifespan	0	http://www.adoptapet.com/s/adopt-a-scottish-fold	1
scottish_fold_lifespan	0	http://www.petguide.com/breeds/cat/scottish-straight/	1
scottish_fold_lifespan	0	http://www.amazon.com/Scottish-Folds-Cats-Pets-Information-ebook/dp/B06XXV8PR2	0
scottish_fold_lifespan	0	http://cats.fandom.com/wiki/Scottish_Fold	1
scottish_fold_lifespan	0	http://www.pawculture.com/breed-basics/cat-breeds/scottish-fold-cat-breed/	0
scottish_fold_lifespan	0	http://www.amazon.com/Scottish-Folds-Cats-Pets-Information/dp/1946286184	0
scottish_fold_lifespan	0	http://www.wwwallaboutcats.com/best-cat-foods-well-balanced-scottish-fold-diet	0
scottish_fold_lifespan	0	http://vcahospitals.com/know-your-pet/cat-breeds/scottish-fold	1
