the_first_phone_with_a_touchscreen	Q0	http://www.spinfold.com/first-touchscreen-phone/	1	70	STANDARD
the_first_phone_with_a_touchscreen	Q0	http://www.geek.com/apple/apples-first-touchscreen-phone-1453963/	2	69	STANDARD
the_first_phone_with_a_touchscreen	Q0	http://mashable.com/2012/11/09/touchscreen-history/	3	68	STANDARD
the_first_phone_with_a_touchscreen	Q0	http://www.quora.com/Which-company-made-the-worlds-first-touch-screen-phone	4	67	STANDARD
the_first_phone_with_a_touchscreen	Q0	http://www.digitaltrends.com/mobile/camera-phone-history/	5	66	STANDARD
the_first_phone_with_a_touchscreen	Q0	http://blog.chinavasion.com/19555/the-first-mobile-phone-in-the-world/	6	65	STANDARD
the_first_phone_with_a_touchscreen	Q0	http://en.wikipedia.org/wiki/Smartphone	7	64	STANDARD
the_first_phone_with_a_touchscreen	Q0	http://www.answers.com/Q/When_was_the_first_touch_screen_phone_invented	8	63	STANDARD
the_first_phone_with_a_touchscreen	Q0	http://www.amazon.com/first-touch-screen-phone/s?k=first+touch+screen+phone	9	62	STANDARD
the_first_phone_with_a_touchscreen	Q0	http://www.textrequest.com/blog/history-evolution-smartphone/	10	61	STANDARD
the_first_phone_with_a_touchscreen	Q0	http://en.wikipedia.org/wiki/Touchscreen	11	60	STANDARD
the_first_phone_with_a_touchscreen	Q0	http://www.youtube.com/watch?v=veJTpMLsZfA	12	59	STANDARD
the_first_phone_with_a_touchscreen	Q0	http://answersdrive.com/when-was-the-first-touchscreen-phone-3749029	13	58	STANDARD
the_first_phone_with_a_touchscreen	Q0	http://electronics.howstuffworks.com/cell-phone-pictures.htm	14	57	STANDARD
the_first_phone_with_a_touchscreen	Q0	http://www.webdesignerdepot.com/2009/05/the-evolution-of-cell-phone-design-between-1983-2009/	15	56	STANDARD
the_first_phone_with_a_touchscreen	Q0	http://allthingsd.com/20100318/htc-to-apple-we-built-a-touchscreen-phone-before-you-did/	16	55	STANDARD
the_first_phone_with_a_touchscreen	Q0	http://www.answers.com/Q/What_was_the_first_touch_screen_phone	17	54	STANDARD
the_first_phone_with_a_touchscreen	Q0	http://www.t-mobile.com/news/t-mobile-unveils-the-t-mobile-g1-the-first-phone-powered-by	18	53	STANDARD
the_first_phone_with_a_touchscreen	Q0	http://www.ambercite.com/amberblog/2017/8/7/touch-screen-patents-the-first-and-the-greatest	19	52	STANDARD
the_first_phone_with_a_touchscreen	Q0	http://time.com/3137005/first-smartphone-ibm-simon/	20	51	STANDARD
the_first_phone_with_a_touchscreen	Q0	http://www.thoughtco.com/who-invented-touch-screen-technology-1992535	21	50	STANDARD
the_first_phone_with_a_touchscreen	Q0	http://arstechnica.com/gadgets/2013/04/from-touch-displays-to-the-surface-a-brief-history-of-touchscreen-technology/	22	49	STANDARD
the_first_phone_with_a_touchscreen	Q0	http://www.pcmag.com/feature/309047/samsung-s-smartphone-history-from-zero-to-galaxy-s4	23	48	STANDARD
the_first_phone_with_a_touchscreen	Q0	http://www.amazon.com/YOYOSTORE-Childs-Interactive-First-Phone/dp/B01L0MJX0E	24	47	STANDARD
the_first_phone_with_a_touchscreen	Q0	http://www.androidcentral.com/look-back-google-sooner-first-android-phone	25	46	STANDARD
the_first_phone_with_a_touchscreen	Q0	http://electronics.howstuffworks.com/iphone1.htm	26	45	STANDARD
the_first_phone_with_a_touchscreen	Q0	http://joyofandroid.com/android-phones-first-time-smartphone-users/	27	44	STANDARD
the_first_phone_with_a_touchscreen	Q0	http://www.techspot.com/trivia/11-what-first-mobile-phone-market-capacitive-touchscreen/	28	43	STANDARD
the_first_phone_with_a_touchscreen	Q0	http://sciencenode.org/feature/How%20did%20smartphones%20evolve.php	29	42	STANDARD
the_first_phone_with_a_touchscreen	Q0	http://www.cnet.com/news/the-first-android-phone-10-years-later-an-annotated-review/	30	41	STANDARD
the_first_phone_with_a_touchscreen	Q0	http://www.spinfold.com/first-windows-phone/	31	40	STANDARD
the_first_phone_with_a_touchscreen	Q0	http://en.wikipedia.org/wiki/Samsung_SGH-T919	32	39	STANDARD
the_first_phone_with_a_touchscreen	Q0	http://blog.shopnani.com/2019/first-touchscreen-phone/	33	38	STANDARD
the_first_phone_with_a_touchscreen	Q0	http://www.wsj.com/articles/lg-g6-first-look-a-taller-take-on-the-touch-screen-1488110400	34	37	STANDARD
the_first_phone_with_a_touchscreen	Q0	http://www.gsmarena.com/counterclockwise_an_abridged_history_of_lgs_phones-news-32706.php	35	36	STANDARD
the_first_phone_with_a_touchscreen	Q0	http://codycrossanswers.net/first-mass-market-touchscreen-cell-phone/	36	35	STANDARD
the_first_phone_with_a_touchscreen	Q0	http://www.apple.com/newsroom/2007/01/09Apple-Reinvents-the-Phone-with-iPhone/	37	34	STANDARD
the_first_phone_with_a_touchscreen	Q0	http://www.theverge.com/circuitbreaker/2018/1/24/16926930/vivo-x20-plus-ud-fingerprint-scanner-in-screen-announcement-specs	38	33	STANDARD
the_first_phone_with_a_touchscreen	Q0	http://news.ycombinator.com/item?id=13914279	39	32	STANDARD
the_first_phone_with_a_touchscreen	Q0	http://www.ask.com/youtube?q=first+phone+with+a+touchscreen&v=XD_mLPIV_GE	40	31	STANDARD
the_first_phone_with_a_touchscreen	Q0	http://www.businessinsider.com/worlds-first-smartphone-simon-launched-before-iphone-2015-6	41	30	STANDARD
the_first_phone_with_a_touchscreen	Q0	http://www.thoughtco.com/who-invented-the-iphone-1992004	42	29	STANDARD
the_first_phone_with_a_touchscreen	Q0	http://www.forbes.com/sites/markrogowsky/2017/06/29/iphone-love-at-first-multi-touch-but-a-long-road-to-bliss/	43	28	STANDARD
the_first_phone_with_a_touchscreen	Q0	http://www.fastcompany.com/1164622/samsungs-blue-earth-first-solar-powered-all-touchscreen-cellphone	44	27	STANDARD
the_first_phone_with_a_touchscreen	Q0	http://www.theverge.com/2019/2/20/18231249/samsung-galaxy-fold-folding-phone-features-screen-photos-size-announcement	45	26	STANDARD
the_first_phone_with_a_touchscreen	Q0	http://flauntdigital.com/blog/evolution-mobile-phones/	46	25	STANDARD
the_first_phone_with_a_touchscreen	Q0	http://en.wikipedia.org/wiki/Nokia_7710	47	24	STANDARD
the_first_phone_with_a_touchscreen	Q0	http://www.hongkiat.com/blog/evolution-of-mobile-phones/	48	23	STANDARD
the_first_phone_with_a_touchscreen	Q0	http://www.theguardian.com/technology/2012/jan/24/smartphones-timeline	49	22	STANDARD
the_first_phone_with_a_touchscreen	Q0	http://www.financialexpress.com/photos/technology-gallery/1008022/today-in-2007-steve-jobs-introduced-apples-first-smartphone-from-iphone-1-iphone-6-to-iphone-x-how-the-cell-phone-evolved/	50	21	STANDARD
the_first_phone_with_a_touchscreen	Q0	http://www.pocket-lint.com/phones/news/131575-motorola-phones-since-1983-the-best-and-the-worst-in-pictures	51	20	STANDARD
the_first_phone_with_a_touchscreen	Q0	http://www.techradar.com/news/mobile-phones/phone-and-communications/lg-s-kp500-first-cheap-touchscreen-phone-472121	52	19	STANDARD
the_first_phone_with_a_touchscreen	Q0	http://www.insider.com/the-history-of-the-cellphone-2018-7	53	18	STANDARD
the_first_phone_with_a_touchscreen	Q0	http://www.telegraph.co.uk/technology/news/4323195/Nokia-launches-first-touch-screen-phone.html	54	17	STANDARD
the_first_phone_with_a_touchscreen	Q0	http://www.cnbc.com/2017/06/26/creation-of-the-first-iphone-touchscreen-interview-with-scott-forstall-tony-fadell-and-greg-christie.html	55	16	STANDARD
the_first_phone_with_a_touchscreen	Q0	http://www.tigermobiles.com/evolution/	56	15	STANDARD
the_first_phone_with_a_touchscreen	Q0	http://www.applegazette.com/feature/6-things-apple-did-not-invent/	57	14	STANDARD
the_first_phone_with_a_touchscreen	Q0	http://www.mobileindustryreview.com/2016/10/the-history-of-the-smartphone.html	58	13	STANDARD
the_first_phone_with_a_touchscreen	Q0	http://www.buzzfeednews.com/article/katienotopoulos/gabb-is-the-first-smartphone-dumb-enough-for-children	59	12	STANDARD
the_first_phone_with_a_touchscreen	Q0	http://www.gsmhistory.com/vintage-mobiles/	60	11	STANDARD
the_first_phone_with_a_touchscreen	Q0	http://thenextweb.com/apple/2015/09/09/genius-annotated-with-genius/	61	10	STANDARD
the_first_phone_with_a_touchscreen	Q0	http://www.eweek.com/mobile/nine-ways-the-apple-iphone-redefined-the-smartphone-in-2007	62	9	STANDARD
the_first_phone_with_a_touchscreen	Q0	http://www.washingtonpost.com/technology/2019/11/13/motorolas-razr-flip-phone-is-back-folding-screen-smartphone/	63	8	STANDARD
the_first_phone_with_a_touchscreen	Q0	http://www.igadgetsworld.com/bezel-less-smartphones-history-future/	64	7	STANDARD
the_first_phone_with_a_touchscreen	Q0	http://www.wired.com/2008/06/first-look-th-1/	65	6	STANDARD
the_first_phone_with_a_touchscreen	Q0	http://www.goodgearguide.com.au/article/355922/capacitive_vs_resistive_touchscreens/	66	5	STANDARD
the_first_phone_with_a_touchscreen	Q0	http://appleinsider.com/articles/18/06/29/the-story-of-the-original-iphone-that-nobody-thought-was-possible	67	4	STANDARD
the_first_phone_with_a_touchscreen	Q0	http://www.vox.com/2017/6/26/15821652/iphone-apple-10-year-anniversary-launch-mobile-stats-smart-phone-steve-jobs	68	3	STANDARD
the_first_phone_with_a_touchscreen	Q0	http://www.androidpolice.com/2018/09/23/first-android-phone-t-mobile-g1-announced-10-years-ago-today/	69	2	STANDARD
the_first_phone_with_a_touchscreen	Q0	http://www.bestbuy.com/site/searchpage.jsp?id=pcat17071&st=first+touch+screen+phone	70	1	STANDARD
the_first_phone_with_a_touchscreen	Q0	http://www.dealerscope.com/article/galaxy-fold-vs-foldbot-squaretrades-first-phone-folding-robot/	71	0	STANDARD
