how_many_lifeboats_were_on_the_titanic	Q0	http://www.historyonthenet.com/the-titanic-lifeboats	1	77	STANDARD
how_many_lifeboats_were_on_the_titanic	Q0	http://www.history.com/topics/early-20th-century-us/titanic	2	76	STANDARD
how_many_lifeboats_were_on_the_titanic	Q0	http://titanicdatabase.fandom.com/wiki/Lifeboats_of_the_RMS_Titanic	3	75	STANDARD
how_many_lifeboats_were_on_the_titanic	Q0	http://www.answers.com/Q/How_many_lifeboats_were_on_the_Titanic	4	74	STANDARD
how_many_lifeboats_were_on_the_titanic	Q0	http://www.answers.com/Q/How_many_lifeboats_was_the_Titanic_meant_to_carry	5	73	STANDARD
how_many_lifeboats_were_on_the_titanic	Q0	http://www.premierexhibitions.com/exhibitions/3/3/titanic-artifact-exhibition/blog/carpathia-comes-titanics-rescue	6	72	STANDARD
how_many_lifeboats_were_on_the_titanic	Q0	http://www.quora.com/How-many-lifeboats-were-on-the-Titanic	7	71	STANDARD
how_many_lifeboats_were_on_the_titanic	Q0	http://study.com/academy/answer/how-many-collapsible-lifeboats-were-on-the-titanic.html	8	70	STANDARD
how_many_lifeboats_were_on_the_titanic	Q0	http://www.titanicuniverse.com/titanic-mystery-what-happened-to-her-lifeboats/3721	9	69	STANDARD
how_many_lifeboats_were_on_the_titanic	Q0	http://titanicfacts.net/titanic-lifeboats/	10	68	STANDARD
how_many_lifeboats_were_on_the_titanic	Q0	http://www.thoughtco.com/little-known-facts-about-the-titanic-1779209	11	67	STANDARD
how_many_lifeboats_were_on_the_titanic	Q0	http://www.titanic-titanic.com/titanics-lifeboats/	12	66	STANDARD
how_many_lifeboats_were_on_the_titanic	Q0	http://www.nationalgeographic.org/media/sinking-of-the-titanic/	13	65	STANDARD
how_many_lifeboats_were_on_the_titanic	Q0	http://www.dummies.com/education/history/the-titanic-passengers-lifeboat-shortage/	14	64	STANDARD
how_many_lifeboats_were_on_the_titanic	Q0	http://www.smithsonianmag.com/history/photos-of-the-titanic-tragedy-from-101-years-ago-19446446/	15	63	STANDARD
how_many_lifeboats_were_on_the_titanic	Q0	http://answers.yahoo.com/question/index?qid=20070206111226AAXU1CN	16	62	STANDARD
how_many_lifeboats_were_on_the_titanic	Q0	http://mashable.com/2016/04/14/titanic-survivors/	17	61	STANDARD
how_many_lifeboats_were_on_the_titanic	Q0	http://allthatsinteresting.com/titanic-survivors	18	60	STANDARD
how_many_lifeboats_were_on_the_titanic	Q0	http://en.wikipedia.org/wiki/Lifeboats_of_the_RMS_Titanic	19	59	STANDARD
how_many_lifeboats_were_on_the_titanic	Q0	http://www.britannica.com/topic/Titanic	20	58	STANDARD
how_many_lifeboats_were_on_the_titanic	Q0	http://www.titanicpages.com/lifeboats	21	57	STANDARD
how_many_lifeboats_were_on_the_titanic	Q0	http://www.youtube.com/watch?v=UDIELYJTD7I	22	56	STANDARD
how_many_lifeboats_were_on_the_titanic	Q0	http://www.nonfictionminute.org/the-nonfiction-minute/titanic-not-enough-lifeboats	23	55	STANDARD
how_many_lifeboats_were_on_the_titanic	Q0	http://www.ehstoday.com/safety/article/21916859/five-safety-lessons-learned-from-the-sinking-of-the-titanic	24	54	STANDARD
how_many_lifeboats_were_on_the_titanic	Q0	http://en.wikipedia.org/wiki/RMS_Titanic	25	53	STANDARD
how_many_lifeboats_were_on_the_titanic	Q0	http://www.titanicswitch.com/claims.html	26	52	STANDARD
how_many_lifeboats_were_on_the_titanic	Q0	http://www.historyextra.com/period/20th-century/facts-titanic-history-survivors-lifeboats-temperature-dogs-daily-mail-band/	27	51	STANDARD
how_many_lifeboats_were_on_the_titanic	Q0	http://www.encyclopedia-titanica.org/community/threads/what-happened-to-the-titanic-lifeboats.2857/	28	50	STANDARD
how_many_lifeboats_were_on_the_titanic	Q0	http://www.icyousee.org/titanic.html	29	49	STANDARD
how_many_lifeboats_were_on_the_titanic	Q0	http://www.cheatsheet.com/culture/30-incredible-photos-of-the-titanic-taken-before-and-after-it-sank.html/	30	48	STANDARD
how_many_lifeboats_were_on_the_titanic	Q0	http://www.npr.org/2011/10/15/141328305/how-to-survive-the-titanic-and-sink-your-name	31	47	STANDARD
how_many_lifeboats_were_on_the_titanic	Q0	http://jamescameronstitanic.fandom.com/wiki/Collapsible_Lifeboat_A	32	46	STANDARD
how_many_lifeboats_were_on_the_titanic	Q0	http://www.catholic.org/news/ae/movies/story.php?id=45610	33	45	STANDARD
how_many_lifeboats_were_on_the_titanic	Q0	http://history.info/on-this-day/1912-titanic-actually-had-more-lifeboats-than-the-law-required/	34	44	STANDARD
how_many_lifeboats_were_on_the_titanic	Q0	http://www.sciencefocus.com/planet-earth/the-thought-experiment-how-could-you-survive-the-titanic-disaster-if-there-was-no-room-in-the-lifeboats/	35	43	STANDARD
how_many_lifeboats_were_on_the_titanic	Q0	http://www.quora.com/Why-were-the-Titanic-s-lifeboats-only-half-full	36	42	STANDARD
how_many_lifeboats_were_on_the_titanic	Q0	http://www.historyonthenet.com/how-many-people-were-on-the-titanic	37	41	STANDARD
how_many_lifeboats_were_on_the_titanic	Q0	http://www.irishcentral.com/roots/history/titanic-daniel-buckley-survived-hiding-lifeboat	38	40	STANDARD
how_many_lifeboats_were_on_the_titanic	Q0	http://www.nytimes.com/2018/10/23/business/titanic-replica-ship-sail.html	39	39	STANDARD
how_many_lifeboats_were_on_the_titanic	Q0	http://africacheck.org/fbcheck/no-black-woman-didnt-die-on-titanic-because-lifeboats-were-for-white-people-only/	40	38	STANDARD
how_many_lifeboats_were_on_the_titanic	Q0	http://www.titanicuniverse.com/how-many-people-survived-the-titanic-disaster/1253	41	37	STANDARD
how_many_lifeboats_were_on_the_titanic	Q0	http://www.history.com/news/5-things-you-may-not-know-about-titanics-rescue-ship	42	36	STANDARD
how_many_lifeboats_were_on_the_titanic	Q0	http://www.thevintagenews.com/2017/02/15/a-month-after-the-sinking-of-the-titanic-one-of-its-drifting-lifeboats-was-found-containing-three-bodies/	43	35	STANDARD
how_many_lifeboats_were_on_the_titanic	Q0	http://www.titanicuniverse.com/how-many-people-died-on-the-titanic/1223	44	34	STANDARD
how_many_lifeboats_were_on_the_titanic	Q0	http://www.jsonline.com/story/entertainment/2017/12/19/100-unsinkable-facts-titanic/964485001/	45	33	STANDARD
how_many_lifeboats_were_on_the_titanic	Q0	http://www.ask.com/youtube?q=how+many+lifeboats+were+on+the+titanic&v=W_ek9z0Ljvc	46	32	STANDARD
how_many_lifeboats_were_on_the_titanic	Q0	http://www.snopes.com/fact-check/malinda-borden-titanic-lifeboats/	47	31	STANDARD
how_many_lifeboats_were_on_the_titanic	Q0	http://www.dailymail.co.uk/news/article-3547420/Pictured-Titanic-s-lifeboat-contained-three-rotting-bodies-month-later-passing-liner.html	48	30	STANDARD
how_many_lifeboats_were_on_the_titanic	Q0	http://www.geni.com/projects/Titanic-Survivors-of-Lifeboats-Sixteen-A-B-C-D/31495	49	29	STANDARD
how_many_lifeboats_were_on_the_titanic	Q0	http://www.grunge.com/151448/the-most-disturbing-thing-about-the-titanic-sinking-isnt-what-you-think/	50	28	STANDARD
how_many_lifeboats_were_on_the_titanic	Q0	http://www.belfasttelegraph.co.uk/archive/titanic/titanic-why-was-lifeboat-not-full-28740811.html	51	27	STANDARD
how_many_lifeboats_were_on_the_titanic	Q0	http://www.historyonthenet.com/the-titanic	52	26	STANDARD
how_many_lifeboats_were_on_the_titanic	Q0	http://www.ibtimes.com/titanic-facts-10-things-you-didn%E2%80%99t-know-about-ship-timeline-events-survivors-435770	53	25	STANDARD
how_many_lifeboats_were_on_the_titanic	Q0	http://www.mayoeducationcentre.ie/files/Lesson-1-Teacher-Display-Poster-2-Titanic-Lifeboats.pdf	54	24	STANDARD
how_many_lifeboats_were_on_the_titanic	Q0	http://www.irishcentral.com/roots/history/rms-titanic-numbers-facts-figures-belfast	55	23	STANDARD
how_many_lifeboats_were_on_the_titanic	Q0	http://answers.yahoo.com/question/index?qid=20081219101533AARPsYG	56	22	STANDARD
how_many_lifeboats_were_on_the_titanic	Q0	http://answers.yahoo.com/question/index?qid=20100912193649AAShEDQ	57	21	STANDARD
how_many_lifeboats_were_on_the_titanic	Q0	http://lifeinacrazyworld.com/why-titanics-lifeboats-had-empty-seats/	58	20	STANDARD
how_many_lifeboats_were_on_the_titanic	Q0	http://www.titanicstory.com/interest.htm	59	19	STANDARD
how_many_lifeboats_were_on_the_titanic	Q0	http://www.youtube.com/watch?v=TK-ytzR24hU	60	18	STANDARD
how_many_lifeboats_were_on_the_titanic	Q0	http://www.jmilford-titanic.com/2013/10/how-many-lifeboats-should-there-be.html	61	17	STANDARD
how_many_lifeboats_were_on_the_titanic	Q0	http://www.encyclopedia-titanica.org/community/threads/what-if-there-were-a-ship-to-come-to-titanic-side-in-time.14875/	62	16	STANDARD
how_many_lifeboats_were_on_the_titanic	Q0	http://www.sporcle.com/games/windyhead/titanic	63	15	STANDARD
how_many_lifeboats_were_on_the_titanic	Q0	http://www.bbc.co.uk/history/british/britain_wwone/titanic_01.shtml	64	14	STANDARD
how_many_lifeboats_were_on_the_titanic	Q0	http://www.ducksters.com/history/us_1900s/titanic.php	65	13	STANDARD
how_many_lifeboats_were_on_the_titanic	Q0	http://www.archives.gov/publications/prologue/2012/spring/titanic.html	66	12	STANDARD
how_many_lifeboats_were_on_the_titanic	Q0	http://www.worldatlas.com/articles/how-many-people-died-on-the-titanic.html	67	11	STANDARD
how_many_lifeboats_were_on_the_titanic	Q0	http://www.sigtheatre.org/about/press-and-blogs/2016/december/the-last-minutes-on-the-titanic/	68	10	STANDARD
how_many_lifeboats_were_on_the_titanic	Q0	http://titanic.fandom.com/wiki/Collapsible_A	69	9	STANDARD
how_many_lifeboats_were_on_the_titanic	Q0	http://blogs.loc.gov/law/2012/04/failure-to-update-the-law-a-titanic-mistake/	70	8	STANDARD
how_many_lifeboats_were_on_the_titanic	Q0	http://www.uscitizenship.info/titanics-immigration-to-the-united-states/	71	7	STANDARD
how_many_lifeboats_were_on_the_titanic	Q0	http://infomory.com/numbers/number-of-lifeboats-on-the-titanic/	72	6	STANDARD
how_many_lifeboats_were_on_the_titanic	Q0	http://www.smithsonianmag.com/history/eastland-disaster-killed-more-passengers-titanic-and-lusitania-why-has-it-been-forgotten-180953146/	73	5	STANDARD
how_many_lifeboats_were_on_the_titanic	Q0	http://www.theguardian.com/world/2009/jun/01/last-titanic-survivor-dies	74	4	STANDARD
how_many_lifeboats_were_on_the_titanic	Q0	http://www.rina.org.uk/lifeboats.html	75	3	STANDARD
how_many_lifeboats_were_on_the_titanic	Q0	http://www.encyclopedia-titanica.org/titanic-lifeboats-fareham.html	76	2	STANDARD
how_many_lifeboats_were_on_the_titanic	Q0	http://www.sfmuseum.org/hist5/dodge.html	77	1	STANDARD
how_many_lifeboats_were_on_the_titanic	Q0	http://www.livescience.com/18004-costa-concordia-titanic-comparison.html	78	0	STANDARD
