how many lifeboats were on the titanic;http://en.wikipedia.org/wiki/Lifeboats_of_the_RMS_Titanic;Lifeboats of the RMS Titanic - Wikipedia;The lifeboats of the RMS Titanic played a crucial role in the disaster of 14–15 April 1912. One of the ship's legacies was that she had 20 lifeboats that in total could only accommodate 1,178 people, despite the fact that there were approximately 2,208 on board. RMS Titanic had a maximum capacity of 3,547 passengers and crew. 18 lifeboats were used, loading between 11:45 p.m.–2:15 a.m., though Collapsible Boat A floated off the ship's partially submerged deck, and Collapsible Boat B ... 
how many lifeboats were on the titanic;http://www.historyonthenet.com/the-titanic-lifeboats;The Titanic: Lifeboats - History;Facts on Titanic Lifeboats.  The Titanic carried 20 lifeboats, enough for 1178 people. The existing Board of Trade required a passenger ship to provide lifeboat capacity for 1060 people. Titanic’s lifeboats were situated on the top deck. 
how many lifeboats were on the titanic;http://titanicfacts.net/titanic-lifeboats/;Titanic Lifeboats • Titanic Facts;The Titanic actually carried just 20 lifeboats; 2 wooden cutters, 14 standard wooden lifeboats and 4 collapsible canvas lifeboats. This was far too few for the number of people aboard, and yet remarkably, this was technically legal; the law at that time based the number of lifeboats required on... 
how many lifeboats were on the titanic;http://titanicdatabase.fandom.com/wiki/Lifeboats_of_the_RMS_Titanic;Lifeboats of the RMS Titanic | Titanic Database Wiki | Fandom;Titanic and her sister ships had been designed with the capability of carrying many more lifeboats than were actually provided, up to a total of 68. During the design stage, Alexander Carlisle, Harland & Wolff's chief draughtsman and general manager, submitted a plan to provide 64 lifeboats (it would have required 63 to accommodate all on board). 
how many lifeboats were on the titanic;http://www.answers.com/Q/How_many_lifeboats_were_on_the_Titanic;How many lifeboats were on the Titanic - Answers;Apr 20, 2018 ·  After the Titanic sank, her two sister ships, Olympic and Britannic, were both fitted with the full 64 lifeboats. There were 14 wooden lifeboats with a capacity of 65 persons each, 4 collapsible ... 
how many lifeboats were on the titanic;http://www.answers.com/Q/How_many_lifeboats_was_the_Titanic_meant_to_carry;How many lifeboats was the Titanic meant to carry - Answers;There were 20 lifeboats aboard the Titanic for 1,178 people. The ship's capacity is supposed to be 3,327. It should've had at least double the lifeboats with 2,224 passengers and crew onboard. 
how many lifeboats were on the titanic;http://www.titanic-titanic.com/titanics-lifeboats/;Titanic's Lifeboats - Titanic-Titanic.com;Titanic carried a total of 20 lifeboats, but Alexander Carlisle, one of the managing directors at Harland and Wolff, had suggested using a new type of larger davit, which could handle more boats, giving Titanic the potential of carrying 48 lifeboats, providing more than enough seats for everybody on board. 
how many lifeboats were on the titanic;http://www.snopes.com/fact-check/malinda-borden-titanic-lifeboats/;Did a Black Woman Named Malinda Borden Perish Because Titanic ...;Did a Black Woman Named Malinda Borden Perish Because Titanic’s Lifeboats Were ‘Whites Only?’ Gender, age, and class certainly played a factor in who secured lifeboat seats on the Titanic. 
how many lifeboats were on the titanic;http://en.wikipedia.org/wiki/RMS_Titanic;RMS Titanic - Wikipedia;Like Olympic, Titanic carried a total of 20 lifeboats: 14 standard wooden Harland and Wolff lifeboats with a capacity of 65 people each and four Engelhardt "collapsible" (wooden bottom, collapsible canvas sides) lifeboats (identified as A to D) with a capacity of 47 people each. 
how many lifeboats were on the titanic;http://www.dummies.com/education/history/the-titanic-passengers-lifeboat-shortage/;The Titanic Passengers’ Lifeboat Shortage - dummies;Even though information on how the boats were used is sketchy, experts do know for sure that the Titanic carried a total of 20 lifeboats: Two emergency cutters: Numbered 1 and 2, with a capacity of 40 persons each. 
how many lifeboats were on the titanic;http://www.titanicuniverse.com/titanic-mystery-what-happened-to-her-lifeboats/3721;Titanic Mystery: What Happened to Her Lifeboats?;On April 18th, Carpathia arrived in New York City with the 705 Titanic survivors, and the 13 remaining lifeboats. Once the survivors left the ship, the crew of the Carpathia unloaded the 13 Titanic lifeboats and put them where the Titanic herself was supposed to be, and that was in the White Star Line berth. There is an image of the 13 boats, and some employees standing on them, and these are the last pictures of the lifeboats ever taken. 
how many lifeboats were on the titanic;http://study.com/academy/answer/how-many-collapsible-lifeboats-were-on-the-titanic.html;How many collapsible lifeboats were on the Titanic? | Study.com;Although the Titanic had the capability to carry as many as 64 wooden lifeboats, they carried only 14 wooden lifeboats and two wooden cutters. Answer and Explanation: 
how many lifeboats were on the titanic;http://www.smithsonianmag.com/history/photos-of-the-titanic-tragedy-from-101-years-ago-19446446/;Photos of the Titanic Tragedy From 101 Years Ago | History ...;Many of the passengers had come up on deck in their nightclothes from their bunks aboard Titanic, and they were totally unprepared to climb directly into the lifeboats. 
how many lifeboats were on the titanic;http://www.titanicpages.com/lifeboats;Titanic's Lifeboats - Titanic Pages - Titanic History Website;Titanic had a total of 20 lifeboats. On the night of the sinking 712 people were rescued from Titanic, all of which owe their lives to the lifeboats. Titanic only had lifeboats for around half of the people aboard the ship. 
how many lifeboats were on the titanic;http://www.quora.com/How-many-lifeboats-were-on-the-Titanic;How many lifeboats were on the Titanic? - Quora;Prior to the Titanic disaster, only 20 lifeboats were fitted to the Olympic and Titanic. 14 wooden lifeboats of the ‘standard type’ were built, 30ft long by 9ft 1in breadth and 4ft in depth. These had a capacity of 655.2 cubic feet and were constructed to carry 65 people each, although in terms of weight they could carry quite a lot more. 
how many lifeboats were on the titanic;http://www.historyextra.com/period/20th-century/facts-titanic-history-survivors-lifeboats-temperature-dogs-daily-mail-band/;10 Facts About The Titanic - HistoryExtra;Aug 23, 2019 ·  Originally designed for 64 lifeboats, Titanic only had 20 – not enough for the 2,200 passengers and crew on board. Many of the launched boats were not filled to capacity, with one carrying 24 people, even though it could fit 65. A lifeboat drill was planned for the day it hit the iceberg, but it was cancelled. 
how many lifeboats were on the titanic;http://www.titanicuniverse.com/how-many-people-died-on-the-titanic/1223;How Many People Died on the Titanic?;The Titanic was carrying 2,223 passengers on board when it sank, and out of those 1,517 died. The guests were split into first, second, and third class, and the higher classes had an advantage when it came to boarding lifeboats and being closer to the top of the deck where the lifeboats were being deployed. 
how many lifeboats were on the titanic;http://www.historyonthenet.com/the-titanic;The Titanic: Passengers, Crew, Sinking, and Survivors - History;Many are taught that in the sinking of the Titantic, third-class passengers were locked into flooding passages so as to preserve lifeboats for the first class, most famously in James Cameron’s depiction of the Titanic sinking in film. 
how many lifeboats were on the titanic;http://www.youtube.com/watch?v=UDIELYJTD7I;RMS TITANIC: The Lifeboats (1912) - YouTube;Sep 09, 2015 ·  Every discussion of TITANIC invariably leads to her lifeboats and the fact that they were few in number. It has often been implied that it was simply gross negligence on the part of her builders ... 
how many lifeboats were on the titanic;http://jamescameronstitanic.fandom.com/wiki/Collapsible_Lifeboat_A;Collapsible Lifeboat A | James Cameron's Titanic Wiki | Fandom;Collapsible Lifeboat A was one of the four collapsible lifeboats of the Titanic. It was stored on the starboard side on top of the crew quarters of the ship. Boat A along with Collapsible B were the only two lifeboats who were never launched during the sinking. 
how many lifeboats were on the titanic;http://www.premierexhibitions.com/exhibitions/3/3/titanic-artifact-exhibition/blog/carpathia-comes-titanics-rescue;THE CARPATHIA COMES TO TITANIC'S RESCUE | Premier Exhibitions;the carpathia comes to titanic's rescue On the fateful night RMS Titanic sank, the first ship to respond to her distress call was the Cunard Line’s RMS Carpathia . It would take her approximately three and a half hours to arrive at the position of Titanic’s final distress call, a time which was only managed by Captain Arthur Rostron’s ... 
how many lifeboats were on the titanic;http://answers.yahoo.com/question/index?qid=20070206111226AAXU1CN;How many people were the 20 lifeboats of the Titanic ...;Feb 06, 2007 ·  Most of the lifeboats were launched with less than maximum on board. Only 18 of the 20 lifeboats were launched before the titanic sank. Some people were able to climb out of the water into the unlaunched lifeboats when they floated off the deck. 
how many lifeboats were on the titanic;http://www.britannica.com/topic/Titanic;Titanic | History, Sinking, Rescue, Survivors, & Facts ...;The immediate cause of RMS Titanic’s demise was a collision with an iceberg that caused the ocean liner to sink on April 14–15, 1912. While the ship could reportedly stay afloat if as many as 4 of its 16 compartments were breached, the impact had affected at least 5 compartments. 
how many lifeboats were on the titanic;http://www.youtube.com/watch?v=TK-ytzR24hU;Titanic Lifeboats - YouTube;Apr 22, 2007 ·  The Strange Disappearance of Titanic's Lifeboats - Duration: 10:02. Mark Felton Productions 502,583 views. 10:02. Best and Funniest Air Traffic Control Conversations - Duration: 11:02. 
how many lifeboats were on the titanic;http://answers.yahoo.com/question/index?qid=20081219101533AARPsYG;How many people were the 20 lifeboats of the Titanic ...;Dec 19, 2008 ·  There were 705 survivors and 1517 dead after the sinking. Most of the lifeboats were launched with less than maximum on board. Only 18 of the 20 lifeboats were launched before the titanic sank. Some people were able to climb out of the water into the unlaunched lifeboats when they floated off the deck. Only two lifeboats returned to look for ... 
how many lifeboats were on the titanic;http://titanic.fandom.com/wiki/Collapsible_A;Collapsible A | Titanic Wiki | Fandom;Collapsible A was one of the four collapsible boats of the RMS Titanic that was placed starboard and had a maximum capacity of 47. The boat was never launched, when the crew tried to fasten it to the davits the Boat Deck started to flood and the boat drifted off the Titanic. Many people tried to... 
how many lifeboats were on the titanic;http://history.info/on-this-day/1912-titanic-actually-had-more-lifeboats-than-the-law-required/;1912: Titanic Actually had More Lifeboats than the Law ...;It is interesting that the Titanic was designed so that it could carry as many as 64 lifeboats, which could accommodate about 4,000 people. Although the mentioned 1,178 people could theoretically be saved with these 20 lifeboats, this did not work in practice, due to poor organization. 
how many lifeboats were on the titanic;http://www.worldatlas.com/articles/how-many-people-died-on-the-titanic.html;How Many People Died on the Titanic? - WorldAtlas.com;Nov 24, 2017 ·  How Many People Died On The Titanic? Of the 2,224 people aboard the ship, 1,514 people perished during the sinking of the Titanic in the early morning of April 15, 1912. The Titanic met its fate while on its maiden voyage to New York when it struck an iceberg and sank two hours later. 
how many lifeboats were on the titanic;http://africacheck.org/fbcheck/no-black-woman-didnt-die-on-titanic-because-lifeboats-were-for-white-people-only/;No, black woman didn’t die on Titanic because lifeboats were ...;The passenger ship Titanic sank in the North Atlantic in April 1912, claiming over 1,500 lives.. The Zambian Facebook page Political History recently posted a claim that one of the victims of the tragedy was a black woman named Malinda Borden who died because the ship’s lifeboats were for white people only. 
how many lifeboats were on the titanic;http://www.encyclopedia-titanica.org/titanic-lifeboats-fareham.html;Titanic Lifeboats - Encyclopedia Titanica;Titanic Lifeboats.  The story was that the boat was too small to be used on 30ft lifeboat davits, so was used as a training boat by HMS Vernon and HMS Foudroyant. From my memory of the picture, the cutter was probably 25 / 27ft long, being about 5 times longer than the helmsman standing on the stern bench of the boat. 
