scottish_fold_lifespan	Q0	http://www.thesprucepets.com/scottish-fold-profile-551898	1	76	STANDARD
scottish_fold_lifespan	Q0	http://cattime.com/cat-breeds/scottish-fold-cats	2	75	STANDARD
scottish_fold_lifespan	Q0	http://catscottishfold.com/scottish-fold-munchkins-size-lifespan/	3	74	STANDARD
scottish_fold_lifespan	Q0	http://www.worldlifeexpectancy.com/cat-life-expectancy-scottish-fold	4	73	STANDARD
scottish_fold_lifespan	Q0	http://www.scottishfoldlove.com/scottish-fold-life-expectancy/	5	72	STANDARD
scottish_fold_lifespan	Q0	http://www.bestpetcarehub.com/scottish-fold-cat/	6	71	STANDARD
scottish_fold_lifespan	Q0	http://www.catbreedslist.com/all-cat-breeds/Scottish-Fold.html	7	70	STANDARD
scottish_fold_lifespan	Q0	http://www.amazon.com/Scottish-Folds-Cats-Pets-Information/dp/1946286184	8	69	STANDARD
scottish_fold_lifespan	Q0	http://gulfnews.com/going-out/society/the-painful-life-of-a-scottish-fold-cat-1.2261004	9	68	STANDARD
scottish_fold_lifespan	Q0	http://en.wikipedia.org/wiki/Scottish_Fold	10	67	STANDARD
scottish_fold_lifespan	Q0	http://thescottishfold.com/more-about-the-scottish-fold-breed/scottish-fold-health-issues/	11	66	STANDARD
scottish_fold_lifespan	Q0	http://www.floppycats.com/average-lifespan-of-a-ragdoll-cat.html	12	65	STANDARD
scottish_fold_lifespan	Q0	http://www.amazon.com/Scottish-Folds-Cats-Pets-Information-ebook/dp/B06XXV8PR2	13	64	STANDARD
scottish_fold_lifespan	Q0	http://www.petful.com/cat-breeds/scottish-fold-cat-breed-profile/	14	63	STANDARD
scottish_fold_lifespan	Q0	http://www.catbreedsjunction.com/scottish-fold-cats.html	15	62	STANDARD
scottish_fold_lifespan	Q0	http://purrcraze.com/can-scottish-folds-be-left-alone	16	61	STANDARD
scottish_fold_lifespan	Q0	http://www.petguide.com/breeds/cat/scottish-straight/	17	60	STANDARD
scottish_fold_lifespan	Q0	http://cfa.org/Breeds/BreedsSthruT/ScottishFold.aspx	18	59	STANDARD
scottish_fold_lifespan	Q0	http://www.anniemany.com/2013/10/scottish-fold-cat-sizeweight-and-life.html	19	58	STANDARD
scottish_fold_lifespan	Q0	http://www.circleoflifecattery.com/	20	57	STANDARD
scottish_fold_lifespan	Q0	http://www.vetstreet.com/cats/scottish-fold-highland-fold	21	56	STANDARD
scottish_fold_lifespan	Q0	http://www.lifesabeachcattery.com/	22	55	STANDARD
scottish_fold_lifespan	Q0	http://www.mcleanvet.com/breed-of-the-month-scottish-fold/	23	54	STANDARD
scottish_fold_lifespan	Q0	http://www.petcarerx.com/article/the-average-lifespan-of-a-cat-breed-by-breed-chart/1698	24	53	STANDARD
scottish_fold_lifespan	Q0	http://www.scottishfoldlove.com/scottish-fold-temperament-and-personality/	25	52	STANDARD
scottish_fold_lifespan	Q0	http://kittentoob.com/20-things-you-didnt-know-about-scottish-fold-cats/	26	51	STANDARD
scottish_fold_lifespan	Q0	http://catscottishfold.com/scottish-fold-life-expectancy/	27	50	STANDARD
scottish_fold_lifespan	Q0	http://myfavpet.com/scottish-straight-cat/	28	49	STANDARD
scottish_fold_lifespan	Q0	http://customdessertshoppe.com/scottish-fold.html	29	48	STANDARD
scottish_fold_lifespan	Q0	http://www.fanciers.com/breed-faqs/scottish-fold-faq.html	30	47	STANDARD
scottish_fold_lifespan	Q0	http://www.amazon.com/Scottish-Folds-Cats-Pets-Information-ebook/dp/B06XXV8PR2?tag=askcomdelta-20	31	46	STANDARD
scottish_fold_lifespan	Q0	http://www.youtube.com/watch?v=1ZUiUYhnPvo	32	45	STANDARD
scottish_fold_lifespan	Q0	http://www.petsworld.in/blog/list-of-cat-breeds-with-pictures.html	33	44	STANDARD
scottish_fold_lifespan	Q0	http://www.burkesbackyard.com.au/fact-sheets/pets/pet-road-tests/cats/scottish-shorthair/	34	43	STANDARD
scottish_fold_lifespan	Q0	http://www.adoptapet.com/s/adopt-a-scottish-fold	35	42	STANDARD
scottish_fold_lifespan	Q0	http://kittens-nyc.com/	36	41	STANDARD
scottish_fold_lifespan	Q0	http://www.britannica.com/story/dwarfism-in-cats-its-only-cute-til-someone-gets-hurt	37	40	STANDARD
scottish_fold_lifespan	Q0	http://www.bbc.com/news/uk-scotland-39717634	38	39	STANDARD
scottish_fold_lifespan	Q0	http://www.bokus.com/bok/9781946286185/scottish-folds-cats-as-pets-scottish-fold-facts-information-where-to-buy-health-diet-lifespan-types-breeding-care-and-more-a-complete-sc/	39	38	STANDARD
scottish_fold_lifespan	Q0	http://www.gopetsamerica.com/profiles/scottishfold.aspx	40	37	STANDARD
scottish_fold_lifespan	Q0	http://www.thehappycatsite.com/scottish-fold/	41	36	STANDARD
scottish_fold_lifespan	Q0	http://www.youtube.com/watch?v=2QntT9owoV0	42	35	STANDARD
scottish_fold_lifespan	Q0	http://vcahospitals.com/know-your-pet/cat-breeds/scottish-fold	43	34	STANDARD
scottish_fold_lifespan	Q0	http://www.pethealthnetwork.com/cat-health/cat-breeds/scottish-fold-0	44	33	STANDARD
scottish_fold_lifespan	Q0	http://247wallst.com/special-report/2017/11/02/longest-and-shortest-living-cat-breeds/6/	45	32	STANDARD
scottish_fold_lifespan	Q0	http://petcyclopedia.com/cat/40/scottish-fold/	46	31	STANDARD
scottish_fold_lifespan	Q0	http://www.westhillvet.com/breed-month-scottish-fold/	47	30	STANDARD
scottish_fold_lifespan	Q0	http://www.hillspet.com/cat-care/cat-breeds/singapura	48	29	STANDARD
scottish_fold_lifespan	Q0	http://www.pawculture.com/breed-basics/cat-breeds/scottish-fold-cat-breed/	49	28	STANDARD
scottish_fold_lifespan	Q0	http://www.petinsurance.com/healthzone/pet-articles/pet-breeds/5-Things-You-Didnt-Know-About-Scottish-Fold-Cats.aspx	50	27	STANDARD
scottish_fold_lifespan	Q0	http://mybritishshorthair.com/british-shorthair-or-scottish-fold/	51	26	STANDARD
scottish_fold_lifespan	Q0	http://www.veterinarians.com/features/a-guide-to-the-scottish-fold-cat	52	25	STANDARD
scottish_fold_lifespan	Q0	http://www.dimensions.guide/element/scottish-fold-cat	53	24	STANDARD
scottish_fold_lifespan	Q0	http://www.purina.com/cats/cat-breeds/scottish-fold	54	23	STANDARD
scottish_fold_lifespan	Q0	http://www.carealotpets.com/cat-breeds-CAT-ScottishFold.aspx	55	22	STANDARD
scottish_fold_lifespan	Q0	http://www.softschools.com/facts/cats/scottish_fold_facts/2634/	56	21	STANDARD
scottish_fold_lifespan	Q0	http://cats.animal-world.com/Cat-Mutations/ScottishFoldCat.php	57	20	STANDARD
scottish_fold_lifespan	Q0	http://www.mypetneedsthat.com/scottish-fold-cat/	58	19	STANDARD
scottish_fold_lifespan	Q0	http://www.petfinder.com/cat/oscar-44929916/on/richmond-hill/forgotten-ones-cat-rescue-and-adoption-inc-dot-on170/	59	18	STANDARD
scottish_fold_lifespan	Q0	http://cats.fandom.com/wiki/Scottish_Fold	60	17	STANDARD
scottish_fold_lifespan	Q0	http://www.petguide.com/breeds/cat/scottish-fold/	61	16	STANDARD
scottish_fold_lifespan	Q0	http://www.wwwallaboutcats.com/best-cat-foods-well-balanced-scottish-fold-diet	62	15	STANDARD
scottish_fold_lifespan	Q0	http://www.cheatsheet.com/money-career/most-expensive-cat-breeds-world.html/	63	14	STANDARD
scottish_fold_lifespan	Q0	http://www.catscenterstage.com/breeds/scottish-fold2.shtml	64	13	STANDARD
scottish_fold_lifespan	Q0	http://www.amvetbio.com/products/5487dc33e37ec6e63a000006	65	12	STANDARD
scottish_fold_lifespan	Q0	http://www.necoichi.com/Blog/detail/id=4050	66	11	STANDARD
scottish_fold_lifespan	Q0	http://myscottishfold.com/	67	10	STANDARD
scottish_fold_lifespan	Q0	http://www.thevetexpert.com/most-popular-cat-breeds-choosing-the-right-cat-for-you/	68	9	STANDARD
scottish_fold_lifespan	Q0	http://www.ukpets.com/cat-breeds/scottish-fold	69	8	STANDARD
scottish_fold_lifespan	Q0	http://www.pinterest.com/scottishfoldluv/scottish-folds/	70	7	STANDARD
scottish_fold_lifespan	Q0	http://www.petfinder.com/cat-breeds/scottish-fold/	71	6	STANDARD
scottish_fold_lifespan	Q0	http://www.mnn.com/family/pets/blogs/ethics-cuteness-closer-look-12-trendy-cat-mutations	72	5	STANDARD
scottish_fold_lifespan	Q0	http://bowwowinsurance.com.au/cats/cat-breeds/scottish-fold/	73	4	STANDARD
scottish_fold_lifespan	Q0	http://www.eclinpath.com/hemostasis/transfusion-medicine/blood-types/	74	3	STANDARD
scottish_fold_lifespan	Q0	http://thescottishfold.com/more-about-the-scottish-fold-breed/scottish-fold-temperament/	75	2	STANDARD
scottish_fold_lifespan	Q0	http://www.allafold.com/	76	1	STANDARD
scottish_fold_lifespan	Q0	http://www.basepaws.com/blog/polycystic-kidney-disease/	77	0	STANDARD
