Hekla number of eruptions in the XX century;http://en.wikipedia.org/wiki/Mt._Hekla;Hekla - Wikipedia;Hekla is one of Iceland's most active volcanoes ; over 20 eruptions have occurred in and around the volcano since 874. During the Middle Ages, Europeans called the volcano the "Gateway to Hell ". Hekla is part of a volcanic ridge, 40 km (25 mi) long.
Hekla number of eruptions in the XX century;http://adventures.is/iceland/attractions/hekla-volcano/;Hekla Volcano | Arctic Adventures;Hekla Volcano Facts. Hekla has been active for thousands of years with 20 recorded eruptions. The first people to climb Hekla were Eggert Ólafsson and Bjarni Pálsson in 1750. Folktales tell us stories that souls of the damned were once believed to pass through the crater of Hekla on their way to hell.
Hekla number of eruptions in the XX century;http://www.britannica.com/place/Hekla;Hekla | volcano, Iceland | Britannica;Since the late 20th century Hekla’s eruptions have been characterized by an explosive ash-producing phase that precedes or occurs simultaneously with fountaining or flowing lava. Hekla had four minor eruptions during this time: in 1970, 1980, 1991, and 2000. The eruption in 2000 lasted four days but caused no significant damage.
Hekla number of eruptions in the XX century;http://www.icelandontheweb.com/articles-on-iceland/nature/volcanoes/hekla/;Hekla - Iceland On The Web;Hekla volcano - eruption history It is thought that Hekla has had at least twenty eruptions since the settlement of Iceland in the year 874 AD. The biggest eruption was in 1104 AD when it erupted without warning ejecting millions of tonnes of tephra. It erupted four times in …
Hekla number of eruptions in the XX century;http://all-geo.org/volcan01010/2011/08/a-taste-of-hekla/;A taste of Hekla | Volcan01010;Aug 02, 2011 · The next eruption of Hekla will probably not be as large as the Hekla 4 eruption, however. The most recent eruptions (in 1970, 1980, 1981, 1990 and 2000) were all much smaller. Each began with a short explosive phase lasting hours to days, followed by …
Hekla number of eruptions in the XX century;http://volcanic-eruption.com/hekla-on-fire-the-eruption-of-hekla-1947-48/;Hekla On Fire: The Eruption Of Hekla 1947-48 • Volcanic ...;Hekla on Fire: The Eruption of Hekla 1947-48.  Icelandic documentary on the eruption of Mount Hekla between 1947 and 1948. – On this day, 70 years ago (on the 29th of march 1947) an eruption started in Hekla that lasted for 13 months, the biggest in Iceland in the 20th century. Share : …
Hekla number of eruptions in the XX century;http://volcano.oregonstate.edu/vwdocs/volc_images/europe_west_asia/eruption_history.html;Hekla Eruption History - Volcano;1300: Large eruption lasting the whole year; the second largest tephra eruption in Iceland's history. The southern Selsundshraun lava flow probably formed in this eruption. 1341: Medium size eruption that ejected tephra that was carried to the west and southwest of Hekla, poisoning a large number of livestock most likely by fluorine.
Hekla number of eruptions in the XX century;http://earthice.hi.is/hekla_volcano;Hekla volcano | Institute of Earth Sciences;In the period AD 1200-1900 Hekla produced one to two eruptions per century. Each eruption began with a sub-Plinian to Plinian tephra-producing phase of andesitic to dacitic composition and in many eruptions this was followed by a longer-lasting phase of lava effusion.
Hekla number of eruptions in the XX century;http://www.extremeiceland.is/en/travel-guide/eruptions-in-iceland-since-1900;Eruptions in Iceland during the 20th and the 21st centuries;Aug 08, 2015 · Hekla is one of Iceland's most active volcanoes and erupted for instance in 1947, 1970, 1980, 1990 and 2000. So it's likely that Hekla will erupt soon. At least it is considered that the volcano is due to erupt and that it could happen at any given moment.
Hekla number of eruptions in the XX century;http://adsabs.harvard.edu/abs/2018GeoRL..45.1805P;Hekla Volcano, Iceland, in the 20th Century: Lava Volumes ...;During eruptions the active vents migrate 325-480 m downhill, suggesting rough excess pressures of 8-12 MPa and that the gradient of this excess pressure increases from 0.4 to 11 Pa s-1 during the 20th century. We suggest that this is related to increased resistance along the eruptive conduit.
Hekla number of eruptions in the XX century;http://www.geologyin.com/2016/06/hekla-volcano-ready-to-unleash-major.html;Hekla volcano ready to unleash 'major disaster' with ...;'Hekla is one of the most frequently active volcanoes in Iceland and since 1947 it had several rather frequent eruptions (1947 followed by 1970, 1980, 1991 and 2000),' Dr Evgenia Ilyinskaya, research fellow from the University of Leeds who was worked on the Hekla volcano extensively, told MailOnline.
Hekla number of eruptions in the XX century;http://lavacentre.is/guide-to-hekla/;Guide to Hekla Volcano in Iceland, live data and facts ...;Mount Hekla is a stratovolcano (formed from mixed lava and tephra eruptions) situated in the south of Iceland. It is one of the most active and also the most prominent amongst the 30 volcanoes in the country. More than twenty eruptions have taken place in and around the Hekla volcano since 874 AD.
Hekla number of eruptions in the XX century;http://en.wikipedia.org/wiki/List_of_large_volcanic_eruptions_of_the_20th_century;List of large volcanic eruptions of the 20th century ...;List of large volcanic eruptions of the 20th century.  6 Novarupta 1912 Largest eruption of the 20th century. Iriomote-jima 1924 Underwater volcano. 4 Parícutin 1943–1952 The youngest volcano in the world. This volcano grew out of a corn field in Mexico and it was in a Mexican film named Paricutin. Scientists believe that this volcano is extinct even though it erupted once.
Hekla number of eruptions in the XX century;http://www.volcanodiscovery.com/hekla.html;Hekla volcano (South Iceland): / VolcanoDiscovery;1491-m-high Hekla is one of Iceland's most prominent, most known and active volcanoes. It has frequent eruptions that start with an explosive onset producing eruption plumes, then lava fountains and culminate in large lava flows. Most of the volcano's flanks are covered by extensive lava flows from historical eruptions, dating back to 1104 AD.
Hekla number of eruptions in the XX century;http://www.prisonplanet.com/the-number-of-volcanoes-erupting-right-now-is-greater-than-the-20th-centurys-yearly-average.html;Prison Planet.com » The Number Of Volcanoes Erupting Right ...;In other words, the number of volcanoes erupting as you read this article is greater than the 20th century’syearly average. And all of this is part of a larger trend. In 2013, we witnessed the most volcanic eruptions worldwide that we had ever seen in a single year, and 2015 is already threatening to be another one for the record books. All ...
Hekla number of eruptions in the XX century;http://www.volcanocafe.org/dissecting-hekla/;Dissecting Hekla | VolcanoCafe;Hekla is the most mysterious of Iceland’s many volcanoes. Its brooding summit overlooks the broken plains 800 meter below as if it were an English Lord (or perhaps Lady) of the Manor. The fiefdom looks bare and uninviting, but that is not purely Hekla’s fault: once this was dense forest, but it ...
Hekla number of eruptions in the XX century;http://balticlivecam.com/your-stream/natural-phenomenon/hekla-volcano/;Webcam Hekla volcano, Natural phenomenon, Iceland - Online ...;The second strongest eruption of Hekla in the early 12th century decreased the temperature throughout the Northern Hemisphere. Echoes of this natural cataclysm also affected Scotland and Ireland. The most devastating eruption of the Hekla volcano, perfectly demonstrated in our online webcam, happened in 1766. A large number of people died.
Hekla number of eruptions in the XX century;http://www.researchgate.net/profile/Jorge_Montalvo-Jonsson/publication/281211298_Evaluation_of_lava_flow_volumes_from_Hekla_volcano_based_on_new_topographic_data/links/55dbbaa008aeb38e8a8b8f14.pdf?origin=publication_detail;Evaluation of lava flow volumes from Hekla volcano based ...;Evaluation of lava flow volumes from Hekla volcano based on new topographic data Jorge Eduardo Montalvo Morales 60 ECTS thesis submitted in partial fulfillment of a
Hekla number of eruptions in the XX century;http://hiticeland.com/iceland/notes/the-mountain-hekla-is-an-active-volcano;The mountain Hekla is an active volcano | Hit Iceland;Sep 03, 2015 · The mountain Hekla is the most active volcano in Iceland’s modern history. The most recent eruption was in 2000 and a number of eruptions in the last century. Today geologists maintain and predict that the volcano is due, and will erupt quite soon or even very soon. Translating the geologists terminology, it means within days, weeks, months, years and possibly decades, but
Hekla number of eruptions in the XX century;http://www.wired.com/2016/06/icelands-hekla-volcano-really-blow/;Is Iceland's Hekla Volcano Really About to Blow? | WIRED;In fact, if you go back to the 1597 AD eruption (again, be wary of any arbitrary starting point for statistics), Hekla has had eight eruptions separated by anywhere from 32 to 79 years (and if I...
Hekla number of eruptions in the XX century;http://www.volcanodiscovery.com/hekla/news.html;Hekla volcano (Iceland): news & activity updates ...;1-3 day excursions: If you're interested in volcanoes, there are a number of excursions you should not miss if you're in the area: hike to the craters of Stromboli volcano, climb Etna volcano, get to know the unique volcanic history of Santorini - some examples of shorter (1-3 days) tours and excursions we offer.
Hekla number of eruptions in the XX century;http://icelandmonitor.mbl.is/news/nature_and_travel/2017/03/29/unique_photo_of_hekla_eruption_published_for_the_fi/;Unique photo of Hekla eruption published for the first ...;Mar 29, 2017 · Today marks the seventieth anniversary of the biggest eruption in the famous Hekla volcano in latter age. The eruption began on March 29th, 1947 and lasted until April 1948.
Hekla number of eruptions in the XX century;http://www.researchgate.net/publication/226031681_The_1991_eruption_of_Hekla_Iceland;(PDF) The 1991 eruption of Hekla, Iceland - ResearchGate;The 1991 eruption of Hekla, Iceland. Article (PDF Available) ... 1970, 1980-1981, 1991, and 2000) in the 20th century, producing tephra and basaltic-andesite lava flows.
Hekla number of eruptions in the XX century;http://icelandmonitor.mbl.is/news/nature_and_travel/2017/03/29/hekla_shows_signs_of_eruption/;Hekla shows signs of eruption - Iceland Monitor;Mar 29, 2017 · Today marks the 70th anniversary of the greatest Hekla eruption known to man, which lasted 13 months. There have been five eruptions in Mount Hekla since 1970. There have been five eruptions …
Hekla number of eruptions in the XX century;http://icelandmag.is/article/archaeological-find-thjorsardalur-viking-age-farm-destroyed-1104-hekla-eruption;Archaeological find in Þjórsárdalur: Viking Age farm ...;Oct 15, 2018 · A catastrophic eruption in Hekla in the year 1104 destroyed numerous farms in Þjórsárdalur valley. The thick ash and tephra deposited by the volcano left previously prosperous farmlands uninhabitable. Historians had knowledge of 20 different farms which were abandoned following the eruption. The number is up to 21 following the most recent find.
Hekla number of eruptions in the XX century;http://notendur.hi.is/mtg/nemritg/JM-MPaed_2010.pdf;Hazard Assessment and Risk Mitigation for Tourists at ...;Jorge Montalvo, 2010, Hazard Assessment and Risk Mitigation for Tourists at Hekla Volcano, South Iceland, Master’s thesis, Faculty of Earth Sciences, University of Iceland, pp. 67. ISBN XX Printing: XX Reykjavik, Iceland, 28 July 2010.
Hekla number of eruptions in the XX century;http://pages.mtu.edu/~raman/papers2/Thordarson%20and%20Hoskuldsson%202008%20Postglacial%20volcanism.pdf;Postglacial volcanism in Iceland;glacial magma output and number of eruptions. Ice-land is also one of the most active and productive subaerial volcanic region on Earth, with eruption fre-quency of ≥20 events per century and magma out-put rates of ∼8 km3 per century in historic time (i.e. over the …
Hekla number of eruptions in the XX century;http://www.decadevolcano.net/volcanoes/iceland/hekla.htm;Hekla volcano, Iceland;Mar 08, 2000 · Hekla has also had a number of large prehistoric but postglacial eruptions, producing vast amounts of tephra which repeatedly covered up to two thirds of the country with light-coloured tephra (i.e. 7000 B.P., 4500 B.P., 2900 B.P., A.D. 1104 and A.D. 1158).
Hekla number of eruptions in the XX century;http://hraun.vedur.is/ja/skyrslur/contgps/node20.html;Hekla eruption 2000 - Veðurstofa Íslands;Hekla eruption 2000 The volcano Hekla is located at the intersection of the Eastern volcanic zone and the SISZ (Figure 34). Its volcanic history during historic times is characterized by one or two vigorous eruptions per century. The activity pattern changed after the 1947-1948 eruption [Þórarinsson ...
Hekla number of eruptions in the XX century;http://reykjavikcenter.is/info/South/Hekla.aspx;Mt. Hekla Iceland;Hekla has erupted four times in the 20th century, the last time in 1991.It is thought that Hekla has had at least twenty eruptions since the settlement of Iceland. The biggest eruption was in 1104. Hekla has erupted five times in the 20th century, the last time in February …
