Hekla number of eruptions in the XX century;http://www.icelandontheweb.com/articles-on-iceland/nature/volcanoes/hekla/;Hekla - Iceland On The Web;An active volcano for centuries, the mountain Hekla is one of the most ... of the  16th century drew a new marine map of the Nordic countries, on the map of ...
Hekla number of eruptions in the XX century;http://meetingorganizer.copernicus.org/EGU2019/EGU2019-6921.pdf;Hekla volcano the last 1000 years: Integrating remote sensing data ...;Hekla volcano the last 1000 years: Integrating remote sensing data, soil ... ( 2018a) Hekla volcano, Iceland, in the 20th century: Lava volumes, magma supply  ...
Hekla number of eruptions in the XX century;http://www.nature.com/articles/301139a0;Location of a magma reservoir beneath Hekla Volcano, Iceland ...;Jan 13, 1983 ... Hekla, situated on the western boundary of the eastern volcanic zone in South ...  Hekla Volcano, Iceland, in the 20th Century: Lava Volumes, ...
Hekla number of eruptions in the XX century;http://lavacentre.is/more-than-one-fiery-candidate/;Next eruption in Iceland | More than one fiery candidate | LAVA Centre;Sep 12, 2017 ... After the eruption of the Eyjafjallajökull in 2010, many people in the countries ...  During the latter part of the 20th century and into the 21st, Hekla ...
Hekla number of eruptions in the XX century;http://notendur.hi.is/mtg/nemritg/JM-MPaed_2010.pdf;Hazard Assessment and Risk Mitigation for Tourists at Hekla ...;Increase in the number of tourists in this area has a positive impact on the tourist  industry ...... 20th century, in which Hekla erupted 5 times. These eruptions ...
Hekla number of eruptions in the XX century;http://www.discover-the-world.com/blog/whats-happening-with-hekla/;All About Hekla | Blog | Discover the World;Jul 13, 2014 ... Hekla's most famous eruption of the twentieth century lasted from ... International  flight traffic was not affected and many people were able to ...
Hekla number of eruptions in the XX century;http://icelandmonitor.mbl.is/news/nature_and_travel/2019/04/05/the_risk_of_hiking_up_hekla/;The Risk of Hiking up Hekla - Iceland Monitor;Apr 5, 2019 ... Hekla erupts frequently, especially during the 20 th century, with eruptions  occurring in 1947, 1970, 1980, 1991 and 2000. What makes Hekla ...
Hekla number of eruptions in the XX century;http://balticlivecam.com/your-stream/natural-phenomenon/hekla-volcano/;Webcam Hekla volcano, Natural phenomenon, Iceland - Online Live ...;For many centuries, up to our days, this active volcano erupted more than 20 ...  For example, in the 20th century, the largest eruption of Hekla occurred after the ...
Hekla number of eruptions in the XX century;http://www.downtoearth.org.in/news/natural-disasters/bali-s-mt-agung-erupts-again-grounding-450-flights-60979;Bali's Mt Agung erupts again, grounding 450 flights;Jun 29, 2018 ... Bali's Mt Agung erupts again, grounding 450 flights ... Hekla volcano, Iceland, in  the 20th century: Lava volumes, production rates, and effusion ...
Hekla number of eruptions in the XX century;http://www.iceland.is/the-big-picture/nature-environment/volcanoes;Volcanoes;Other active volcanos, measured in terms of the number of eruptions besides  Hekla, are Grímsvötn, Katla, Askja and Krafla. Katla, has erupted about 20 times ...
Hekla number of eruptions in the XX century;http://www.usgs.gov/faqs/what-was-largest-volcanic-eruption-20th-century;What was the largest volcanic eruption in the 20th century?;The World's largest eruption of the 20th century occurred in 1912 at ... is the  circum-Pacific Ring of Fire , where the Pacific Plate meets many surrounding  plates.
Hekla number of eruptions in the XX century;http://www.wired.com/2013/03/alert-status-raised-at-icelands-hekla/;Alert Status Raised at Iceland's Hekla | WIRED;Mar 26, 2013 ... We can add another volcano to the list of restless volcanoes today — Jon ...  events, with multiple VEI 3 and 4 eruptions over the past century.
Hekla number of eruptions in the XX century;http://www.iflscience.com/environment/is-icelands-dangerous-hekla-volcano-about-to-explode/;Is Iceland's Dangerous Hekla Volcano About To Explode ...;Jun 22, 2016 ... ... volcanoes. Although Eyjafjallajokull's 2010 eruption led to the most extensive  shut. ... A 20th Century eruption of Hekla caught on camera.
Hekla number of eruptions in the XX century;http://www.butterfield.com/blog/2016/08/29/things-to-do-in-iceland/;Our Top 5 Favourite Things to Do in Iceland | The Slow Travel Blog;Aug 29, 2016 ... Technically, Hekla erupts about once a century, but the frequent eruptions in the  20th century—in 1947, 1970, 1980, and 1991—have led most ...
Hekla number of eruptions in the XX century;http://www.ngdc.noaa.gov/hazard/stratoguide/pinfeat.html;Pinatubo - Eruption Features;The eruption of Mt. Pinatubo in 1991 stands as the second largest eruption in the  20th Century (Mt. Novarupta, Alaska 1912 claims largest eruption fame).
Hekla number of eruptions in the XX century;http://icelandmag.is/article/archaeological-find-thjorsardalur-viking-age-farm-destroyed-1104-hekla-eruption;Archaeological find in Þjórsárdalur: Viking Age farm destroyed by ...;Oct 15, 2018 ... A catastrophic eruption in Hekla in the year 1104 destroyed ... The number is up  to 21 following the most recent find. ... Skriðufell was acquired by the Icelandic  Forestry service in the mid-20th century and used as a base for ...
Hekla number of eruptions in the XX century;http://www.indiaenvironmentportal.org.in/files/file/Hekla%20volcano%20Iceland.pdf;Hekla Volcano, Iceland, in the 20th Century: Lava Volumes ...;Hekla Volcano, Iceland, in the 20th Century: Lava. Volumes, Production Rates,  and Effusion Rates. G. B. M. Pedersen1,2. , J. M. C. Belart1,3. , E. Magnússon1 ...
Hekla number of eruptions in the XX century;http://orcid.org/0000-0002-0853-8935;Joaquín M. C. Belart (0000-0002-0853-8935) - ORCID | Connecting ...;Hekla Volcano, Iceland, in the 20th Century: Lava Volumes, Production Rates ...  volcanic landscape of Hekla, IcelandProgress in Physical Geography: Earth and  ...
Hekla number of eruptions in the XX century;http://opinvisindi.is/handle/20.500.11815/967?locale-attribute=en;Hekla Volcano, Iceland, in the 20th Century: Lava Volumes ...;22 feb. 2018 ... Title: Hekla Volcano, Iceland, in the 20th Century: Lava Volumes, Production  Rates, and Effusion Rates. Author: Pedersen, Gro ...
Hekla number of eruptions in the XX century;http://www.nps.gov/katm/learn/nature/volcanoes.htm;Volcanoes - Katmai National Park & Preserve (U.S. National Park ...;Oct 13, 2016 ... Why So Many Volcanoes in Katmai and Alaska? ... 1912 was the world's largest  volcanic eruption of the 20th century and one of the five largest ...
Hekla number of eruptions in the XX century;http://pages.mtu.edu/~raman/papers2/Thordarson%20and%20Hoskuldsson%202008%20Postglacial%20volcanism.pdf;Postglacial volcanism in Iceland;... eruption frequency of ≥20 events per century and magma output rates of ≥5  km3 per century. ... throughout postglacial time or ~2% of the total number of  eruptions. However ... to prolific activity at the Hekla volcano during the.  Holocene ...
Hekla number of eruptions in the XX century;http://www.cru.uea.ac.uk/volcanoes-and-their-effect-on-climate;13: Volcanoes and their effect on climate;without a summer" in many parts of the Northern Hemisphere. Only certain types  of ... The 20th century has only seen five major tropical eruptions. Another five ...
Hekla number of eruptions in the XX century;http://pubs.usgs.gov/pp/1791/pp1791.pdf;USGS Professional Paper 1791;chronology of the many Katmai investigations since 1912. Products of the ... The  greatest eruption of the 20th century began at 1300. (Alaskan time) on 6 June ......  bora in 1815 and Hekla in 1947, the 1912 eruption was one of the few historical ...
Hekla number of eruptions in the XX century;http://www.nat-hazards-earth-syst-sci.net/14/2265/2014/nhess-14-2265-2014-supplement.pdf;Supplement of A multi-scale risk assessment for tephra fallout and ...;Hekla volcano is located on the southwest extremity of the EVZ and is one of the  .... During the 20th century a total of 8 eruption have occurred at the volcano, ...
Hekla number of eruptions in the XX century;http://www.bbc.com/news/world-us-canada-44212666;Hawaii volcano: How many people do volcanoes kill? - BBC News;May 27, 2018 ... Volcanoes pose many different types of danger to those who live near ... 20% of  the world's volcanoes have any ground-based monitoring.
Hekla number of eruptions in the XX century;http://www.lavacarrental.is/adventure-extras/iceland-travel-tips/hekla-volcano-and-its-risks;Hekla Volcano and Its Risks | Lava Car Rental;Many tourists are excited about walking on mountain Hekla. Being one of ...  Hekla is an active volcano and has erupted regularly, especially in the 20th  century.
Hekla number of eruptions in the XX century;http://geology.com/novarupta/;Novarupta - The Most Powerful Volcanic Eruption of the 20th Century;The most powerful volcanic eruption of the 20th Century was about to begin – but  ... If the earthquakes strengthen and begin moving upwards, many of these ...
Hekla number of eruptions in the XX century;http://earthsky.org/earth/mount-hekla-was-called-gateway-to-hell;Mount Hekla was called Gateway to Hell | Earth | EarthSky;Nov 1, 2016 ... Mount Hekla is Iceland's 3rd most active volcano. ... In the 16th century, Caspar  Peucer of Germany wrote that the Gates of Hell were ... Hekla has erupted more  than 20 times over the past 1,000 years. ... Volcanic Explosivity Index (VEI), which  ranks eruptions based on the amount of material that they eject.
Hekla number of eruptions in the XX century;http://matadornetwork.com/read/7-volcanoes-going-erupt-moment/;7 volcanoes that are going to erupt at any moment;May 7, 2018 ... Hekla erupts about every ten years, but nothing's happened since 2000, ... and  was the second-largest volcanic eruption in the 20th century.
Hekla number of eruptions in the XX century;http://origins.osu.edu/connecting-history/postcard-reykjavik-iceland-s-volcanic-history;A Postcard from Reykjavik: Iceland's Volcanic History | Origins ...;Jul 13, 2015 ... Humans weren't around when volcanoes formed Iceland's unique island  landscapes some 20 million years ago. ... they focus on the Angry Sisters, Hekla  and Katla, which erupted a century ago and are due—if ... Skógafoss, near  Eyjafjallajökull, is one of many waterfalls seen from the Ring Road; Iceland's ...
