sunken_US_nuclear_submarines	Q0	http://www.popularmechanics.com/military/navy-ships/a25603601/titanic-discovery-nuclear-submarines-navy/	1	79	STANDARD
sunken_US_nuclear_submarines	Q0	http://www.thedrive.com/the-war-zone/28905/the-wreck-of-this-sunken-one-of-a-kind-soviet-nuclear-sub-is-leaking-radiation	2	78	STANDARD
sunken_US_nuclear_submarines	Q0	http://www.newsweek.com/radiation-levels-sunken-russian-submarine-100000-higher-normal-soviet-nuclear-1448484	3	77	STANDARD
sunken_US_nuclear_submarines	Q0	http://en.wikipedia.org/wiki/List_of_sunken_nuclear_submarines	4	76	STANDARD
sunken_US_nuclear_submarines	Q0	http://www.scienceabc.com/eyeopeners/how-dangerous-is-it-to-iose-a-nuclear-submarine-at-sea.html	5	75	STANDARD
sunken_US_nuclear_submarines	Q0	http://www.quora.com/What-happens-to-the-reactor-if-a-nuclear-submarine-is-destroyed-by-a-torpedo-mine	6	74	STANDARD
sunken_US_nuclear_submarines	Q0	http://nationalinterest.org/blog/buzz/nuclear-submarine-down-shocking-accident-sunk-us-navy-attack-sub-46337	7	73	STANDARD
sunken_US_nuclear_submarines	Q0	http://www.naval-technology.com/features/featureperil-in-the-depths-the-worlds-worst-submarine-disasters-4191027/	8	72	STANDARD
sunken_US_nuclear_submarines	Q0	http://en.wikipedia.org/wiki/USS_Scorpion_%28SSN-589%29	9	71	STANDARD
sunken_US_nuclear_submarines	Q0	http://www.cnn.com/2019/07/11/us/radioactive-soviet-submarine-leak-trnd/index.html	10	70	STANDARD
sunken_US_nuclear_submarines	Q0	http://www.technology.org/2019/02/05/do-sunken-nuclear-submarines-pose-a-risk-of-radioactive-pollution/	11	69	STANDARD
sunken_US_nuclear_submarines	Q0	http://en.wikipedia.org/wiki/List_of_lost_United_States_submarines	12	68	STANDARD
sunken_US_nuclear_submarines	Q0	http://bellona.org/news/nuclear-issues/radioactive-waste-and-spent-nuclear-fuel/2015-04-raising-sunken-nuclear-subs-finally-taking-center-stage	13	67	STANDARD
sunken_US_nuclear_submarines	Q0	http://www.history.com/this-day-in-history/atomic-submarine-sinks-in-atlantic	14	66	STANDARD
sunken_US_nuclear_submarines	Q0	http://www.youtube.com/watch?v=dXPQ7OsM3PQ	15	65	STANDARD
sunken_US_nuclear_submarines	Q0	http://www.telegraph.co.uk/news/worldnews/northamerica/usa/7237002/US-admits-salvaging-sunken-Soviet-submarine.html	16	64	STANDARD
sunken_US_nuclear_submarines	Q0	http://en.wikipedia.org/wiki/List_of_submarines_of_the_United_States_Navy	17	63	STANDARD
sunken_US_nuclear_submarines	Q0	http://www.popularmechanics.com/military/navy-ships/a23494010/kursk-submarine-disaster/	18	62	STANDARD
sunken_US_nuclear_submarines	Q0	http://www.msn.com/en-us/news/world/radiation-levels-of-sunken-russian-nuclear-submarine-100000-times-higher-than-normal/ar-AAE8cjH	19	61	STANDARD
sunken_US_nuclear_submarines	Q0	http://www.nytimes.com/2000/10/27/world/none-of-us-can-get-out-kursk-sailor-wrote.html	20	60	STANDARD
sunken_US_nuclear_submarines	Q0	http://nationalinterest.org/blog/buzz/back-2015-russian-made-attack-sub-sunk-us-nuclear-submarine-navy-should-take-notice-35167	21	59	STANDARD
sunken_US_nuclear_submarines	Q0	http://www.voanews.com/europe/sunken-soviet-nuclear-submarine-leaking-high-levels-radiation	22	58	STANDARD
sunken_US_nuclear_submarines	Q0	http://bluebird-electric.net/submarines/submarine_sinkings_nuclear_all_hands_lost_at_sea.htm	23	57	STANDARD
sunken_US_nuclear_submarines	Q0	http://www.foxnews.com/science/radiation-leak-russian-nuclear-sub	24	56	STANDARD
sunken_US_nuclear_submarines	Q0	http://www.businessinsider.com/sunken-soviet-nuclear-sub-leaking-radiation-into-sea-researchers-find-2019-7	25	55	STANDARD
sunken_US_nuclear_submarines	Q0	http://military.wikia.org/wiki/List_of_sunken_nuclear_submarines	26	54	STANDARD
sunken_US_nuclear_submarines	Q0	http://nypost.com/2019/07/11/sunken-nuclear-submarine-leaking-radiation-into-sea-up-to-800000-times-normal-level/	27	53	STANDARD
sunken_US_nuclear_submarines	Q0	http://www.thelocal.it/20160525/italy-finds-wreck-of-wwii-submarine-with-71-bodies-possibly-sealed-inside	28	52	STANDARD
sunken_US_nuclear_submarines	Q0	http://thebarentsobserver.com/en/ecology/2018/01/no-leakages-sunken-nuclear-sub-yet	29	51	STANDARD
sunken_US_nuclear_submarines	Q0	http://en.wikipedia.org/wiki/USS_Thresher_%28SSN-593%29	30	50	STANDARD
sunken_US_nuclear_submarines	Q0	http://www.csmonitor.com/1995/1212/12012.html	31	49	STANDARD
sunken_US_nuclear_submarines	Q0	http://www.nationalgeographic.com/news/2017/11/titanic-nuclear-submarine-scorpion-thresher-ballard/	32	48	STANDARD
sunken_US_nuclear_submarines	Q0	http://interestingengineering.com/uss-thresher-and-scorpion-the-uss-lost-nuclear-submarines	33	47	STANDARD
sunken_US_nuclear_submarines	Q0	http://www.reuters.com/article/us-russia-submarine-accidents/timeline-worst-nuclear-submarine-incidents-idUSTRE7BT0DJ20111230	34	46	STANDARD
sunken_US_nuclear_submarines	Q0	http://www.livescience.com/65931-radioactive-soviet-submarine-leak.html	35	45	STANDARD
sunken_US_nuclear_submarines	Q0	http://nationalinterest.org/blog/buzz/nuclear-submarines-have-only-1-recorded-kill-history-94556	36	44	STANDARD
sunken_US_nuclear_submarines	Q0	http://halturnerradioshow.com/index.php/en/news-page/world/report-american-submarine-torpedoed-and-sunk-off-alaska-coast	37	43	STANDARD
sunken_US_nuclear_submarines	Q0	http://www.npr.org/2019/07/11/740691307/norway-surveys-sunken-soviet-submarine	38	42	STANDARD
sunken_US_nuclear_submarines	Q0	http://www.washingtonpost.com/history/2019/09/26/nuclear-submarine-thresher-was-said-be-americas-best-then-tragedy-struck/	39	41	STANDARD
sunken_US_nuclear_submarines	Q0	http://www.popularmechanics.com/military/navy-ships/a28366815/soviet-sub/	40	40	STANDARD
sunken_US_nuclear_submarines	Q0	http://bellona.org/news/nuclear-issues/2017-06-russia-hints-at-new-plans-to-raise-sunken-nuclear-subs-by-2022	41	39	STANDARD
sunken_US_nuclear_submarines	Q0	http://ktla.com/2019/07/12/sunken-soviet-nuclear-submarine-is-leaking-unusually-high-levels-of-radiation-researchers-say/	42	38	STANDARD
sunken_US_nuclear_submarines	Q0	http://www.warhistoryonline.com/instant-articles/mystery-sinking-of-uss-scorpion.html	43	37	STANDARD
sunken_US_nuclear_submarines	Q0	http://www.newscientist.com/article/mg14119160-300-doubts-lurk-in-graveyard-for-nuclear-subs/	44	36	STANDARD
sunken_US_nuclear_submarines	Q0	http://www.usatoday.com/story/tech/sciencefair/2012/11/10/scorpion-expedition-navy/1692343/	45	35	STANDARD
sunken_US_nuclear_submarines	Q0	http://www.dw.com/en/russian-fire-damaged-nuclear-powered-submarines-reactor-isolated/a-49458252	46	34	STANDARD
sunken_US_nuclear_submarines	Q0	http://theintercept.com/2019/05/29/russia-submarine-kursk-norway-nsa/	47	33	STANDARD
sunken_US_nuclear_submarines	Q0	http://en.wikipedia.org/wiki/Kursk_submarine_disaster	48	32	STANDARD
sunken_US_nuclear_submarines	Q0	http://nationalinterest.org/blog/the-buzz/top-5-worst-submarine-disasters-15496	49	31	STANDARD
sunken_US_nuclear_submarines	Q0	http://www.thesun.co.uk/tech/7996496/titanic-secret-navy-mission-nuclear-submarines/	50	30	STANDARD
sunken_US_nuclear_submarines	Q0	http://www.quora.com/How-many-nuclear-submarines-have-been-sunk	51	29	STANDARD
sunken_US_nuclear_submarines	Q0	http://military.wikia.org/wiki/Category:Sunken_nuclear_submarines	52	28	STANDARD
sunken_US_nuclear_submarines	Q0	http://www.nytimes.com/2019/07/02/world/europe/russia-research-submarine-fire.html	53	27	STANDARD
sunken_US_nuclear_submarines	Q0	http://wnep.com/2019/07/12/a-sunken-soviet-nuclear-submarine-is-leaking-unusually-high-levels-of-radiation/	54	26	STANDARD
sunken_US_nuclear_submarines	Q0	http://www.bbc.com/news/10492457	55	25	STANDARD
sunken_US_nuclear_submarines	Q0	http://www.independent.co.uk/news/world/europe/soviet-nuclear-submarine-russia-barents-sea-radiation-komsomolets-wreck-a8998741.html	56	24	STANDARD
sunken_US_nuclear_submarines	Q0	http://www.everything2.com/title/Sunken+Nuclear+Submarines	57	23	STANDARD
sunken_US_nuclear_submarines	Q0	http://www.thebalancecareers.com/facts-about-navy-submarines-4058060	58	22	STANDARD
sunken_US_nuclear_submarines	Q0	http://www.bermuda-attractions.com/bermuda2_00009d.htm	59	21	STANDARD
sunken_US_nuclear_submarines	Q0	http://www.washingtonpost.com/wp-srv/aponline/20000822/aponline135027_000.htm	60	20	STANDARD
sunken_US_nuclear_submarines	Q0	http://www.latimes.com/archives/la-xpm-1989-04-09-mn-1895-story.html	61	19	STANDARD
sunken_US_nuclear_submarines	Q0	http://www.kitsapsun.com/story/news/2019/07/16/retired-navy-captain-believes-time-now-release-thresher-records/1738878001/	62	18	STANDARD
sunken_US_nuclear_submarines	Q0	http://www.usni.org/magazines/proceedings/2018/july/declassify-thresher-data	63	17	STANDARD
sunken_US_nuclear_submarines	Q0	http://www.themoscowtimes.com/2019/07/03/the-deadliest-submarine-accidents-in-soviet-and-russian-history-a66263	64	16	STANDARD
sunken_US_nuclear_submarines	Q0	http://www.themoscowtimes.com/2014/11/13/sunken-soviet-submarines-threaten-nuclear-catastrophe-in-russias-arctic-a41349	65	15	STANDARD
sunken_US_nuclear_submarines	Q0	http://news.usni.org/2019/07/02/14-sailors-die-on-secretive-russian-nuclear-submarine	66	14	STANDARD
sunken_US_nuclear_submarines	Q0	http://www.theguardian.com/world/2019/jul/04/putin-confirms-fire-hit-russian-submarine-was-nuclear-powered	67	13	STANDARD
sunken_US_nuclear_submarines	Q0	http://www.dsa.no/en/news/94845/releases-from-the-sunken-nuclear-submarine-komsomolets	68	12	STANDARD
sunken_US_nuclear_submarines	Q0	http://www.abc.net.au/news/2019-07-12/russian-nuclear-submarine-radiation-levels-norway-sea-wreck/11304468	69	11	STANDARD
sunken_US_nuclear_submarines	Q0	http://nationalinterest.org/blog/buzz/1986-russian-submarine-27-nuclear-missiles-sank-and-exploded-87386	70	10	STANDARD
sunken_US_nuclear_submarines	Q0	http://www.popularmechanics.com/military/navy-ships/a19746695/us-navy-subs-infographic/	71	9	STANDARD
sunken_US_nuclear_submarines	Q0	http://www.public.navy.mil/subfor/underseawarfaremagazine/Issues/Archives/issue_07/films_books.htm	72	8	STANDARD
sunken_US_nuclear_submarines	Q0	http://www.iflscience.com/editors-blog/this-is-what-happened-when-a-us-nuclear-submarine-crashed-into-an-underwater-mountain/	73	7	STANDARD
sunken_US_nuclear_submarines	Q0	http://americanhistory.si.edu/subs/history/subsbeforenuc/ww2/	74	6	STANDARD
sunken_US_nuclear_submarines	Q0	http://www.popularmechanics.com/military/navy-ships/a21204892/nuclear-missile-submarines-chart/	75	5	STANDARD
sunken_US_nuclear_submarines	Q0	http://www.navytimes.com/news/your-navy/2019/07/03/russia-survivors-rescued-from-secret-sub-after-blaze/	76	4	STANDARD
sunken_US_nuclear_submarines	Q0	http://www.seacoastonline.com/article/20130310/NEWS/303100355	77	3	STANDARD
sunken_US_nuclear_submarines	Q0	http://www.globalresearch.ca/who-sank-the-south-korean-warship-cheonan-destabilization-of-the-korean-peninsula/19375	78	2	STANDARD
sunken_US_nuclear_submarines	Q0	http://www.livescience.com/55884-science-of-famous-shipwrecks.html	79	1	STANDARD
sunken_US_nuclear_submarines	Q0	http://www.livescience.com/41687-japanese-wwii-submarine-discovered.html	80	0	STANDARD
