cybertruck_top_speed	Q0	http://www.evspecifications.com/en/model-speed/ce47f0	1	78	STANDARD
cybertruck_top_speed	Q0	http://www.topspeed.com/cars/tesla-cybertruck/ke6235.html	2	77	STANDARD
cybertruck_top_speed	Q0	http://www.topspeed.com/cars/car-news/tesla-cybertruck-vs-ford-f-150-quick-comparison-ar187117.html	3	76	STANDARD
cybertruck_top_speed	Q0	http://www.evspecifications.com/en/model-speed/d4ddee	4	75	STANDARD
cybertruck_top_speed	Q0	http://www.topspeed.com/cars/car-news/how-will-the-tesla-cybertruck-behave-in-a-crash-ar187132.html	5	74	STANDARD
cybertruck_top_speed	Q0	http://www.evspecifications.com/en/model-speed/800fef	6	73	STANDARD
cybertruck_top_speed	Q0	http://www.topspeed.com/cars/car-news/is-the-tesla-cybertruck-really-faster-or-better-than-the-porsche-911-ar187088.html	7	72	STANDARD
cybertruck_top_speed	Q0	http://www.topspeed.com/cars/car-news/tesla-cybertruck-reveal-performance-expectations-and-specs-ar187083.html	8	71	STANDARD
cybertruck_top_speed	Q0	http://www.topspeed.com/cars/car-news/tesla-s-cybertruck-destroys-the-ford-f-150-in-painful-tug-of-war-battle-ar187115.html	9	70	STANDARD
cybertruck_top_speed	Q0	http://www.topspeed.com/cars/car-news/hope-for-the-cybertruck-restored-as-image-of-young-elon-musk-replacing-a-window-surfaces-on-twitter-ar187282.html	10	69	STANDARD
cybertruck_top_speed	Q0	http://www.caranddriver.com/tesla/cybertruck	11	68	STANDARD
cybertruck_top_speed	Q0	http://www.evspecifications.com/en/model/800fef	12	67	STANDARD
cybertruck_top_speed	Q0	http://www.evspecifications.com/en/model-acceleration/800fef	13	66	STANDARD
cybertruck_top_speed	Q0	http://www.motortrend.com/news/tesla-cybertruck-electric-pickup-fast-0-60-range-payload-towing/	14	65	STANDARD
cybertruck_top_speed	Q0	http://www.youtube.com/watch?v=vJblJX7dn4s	15	64	STANDARD
cybertruck_top_speed	Q0	http://www.financialexpress.com/auto/car-news/tesla-cybertruck-electric-pickup-truck-unveiled-tesla-in-india-range-price-top-speed/1772123/	16	63	STANDARD
cybertruck_top_speed	Q0	http://www.evspecifications.com/en/model/ce47f0	17	62	STANDARD
cybertruck_top_speed	Q0	http://www.reddit.com/r/cybertruck/comments/e9suu9/will_tesla_make_the_cybertruck_faster_top_speed/	18	61	STANDARD
cybertruck_top_speed	Q0	http://www.reddit.com/r/TeslaLounge/comments/e9sw7a/hopefully_cybertruck_gets_higher_top_speed/	19	60	STANDARD
cybertruck_top_speed	Q0	http://www.trustedreviews.com/news/tesla-cybertruck-design-bulletproof-price-release-date-speed-3957265	20	59	STANDARD
cybertruck_top_speed	Q0	http://www.topspeed.com/cars/tesla/2021-tesla-cybertruck-ar173771.html	21	58	STANDARD
cybertruck_top_speed	Q0	http://www.businessinsider.com/tesla-cybertruck-compare-against-rivian-r1t-amazon-ford-electric-truck-2019-11	22	57	STANDARD
cybertruck_top_speed	Q0	http://oilprice.com/Latest-Energy-News/World-News/Musk-Claims-Cybertruck-Orders-Have-Surpassed-200000.html	23	56	STANDARD
cybertruck_top_speed	Q0	http://www.youtube.com/watch?v=v1uJF8K4KoI	24	55	STANDARD
cybertruck_top_speed	Q0	http://www.youtube.com/user/topspeeddotcom	25	54	STANDARD
cybertruck_top_speed	Q0	http://www.autonews.com/sales/tesla-challenges-detroit-3-pickup-launch-marred-cracked-windows	26	53	STANDARD
cybertruck_top_speed	Q0	http://www.wired.com/story/electric-tesla-pickup-truck-announcement-specs-cost-photos/	27	52	STANDARD
cybertruck_top_speed	Q0	http://interestingengineering.com/but-wait-theres-more-tesla-also-unveiled-their-all-electric-atv-at-their-cybertruck-launch	28	51	STANDARD
cybertruck_top_speed	Q0	http://www.equipmentworld.com/tesla-unveils-the-cybertruck-heres-how-it-compares-to-normal-trucks-video/	29	50	STANDARD
cybertruck_top_speed	Q0	http://evcompare.io/cars/tesla/tesla-cybertruck-tri-motor-awd/	30	49	STANDARD
cybertruck_top_speed	Q0	http://www.consumerreports.org/hybrids-evs/electric-tesla-cybertruck-unveiled-with-edgy-futuristic-design/	31	48	STANDARD
cybertruck_top_speed	Q0	http://www.designboom.com/technology/tesla-roadster-electric-supercar-11-17-2017/	32	47	STANDARD
cybertruck_top_speed	Q0	http://insideevs.com/news/386717/video-tesla-cybertruck-speed-highway/	33	46	STANDARD
cybertruck_top_speed	Q0	http://www.wsupercars.com/tesla-2022-cybertruck.php	34	45	STANDARD
cybertruck_top_speed	Q0	http://www.youtube.com/watch?v=5AtZeIjeu98	35	44	STANDARD
cybertruck_top_speed	Q0	http://www.cnet.com/roadshow/news/bugatti-chiron-top-speed-300-mph/	36	43	STANDARD
cybertruck_top_speed	Q0	http://www.youtube.com/watch?v=vWiz0CJVI-c	37	42	STANDARD
cybertruck_top_speed	Q0	http://www.popularmechanics.com/cars/hybrid-electric/a29891717/tesla-cybertruck-facts/	38	41	STANDARD
cybertruck_top_speed	Q0	http://www.topspeed.com/cars/car-news/tesla-cybertruck-photo-gallery-ar187085.html	39	40	STANDARD
cybertruck_top_speed	Q0	http://www.topgear.com/videos/electric/watch-chris-harris-tesla-cybertruck	40	39	STANDARD
cybertruck_top_speed	Q0	http://www.caranddriver.com/news/a29878714/tesla-cybertruck-pickup-truck-photos-info/	41	38	STANDARD
cybertruck_top_speed	Q0	http://www.techspot.com/news/82918-tesla-cyberquad-atv-ship-add-cybertruck.html	42	37	STANDARD
cybertruck_top_speed	Q0	http://autoacademies.com/2019/11/23/how-fast-is-the-tesla-cybertruck-and-how-much-can-it-tow/	43	36	STANDARD
cybertruck_top_speed	Q0	http://www.carscoops.com/2019/11/tesla-cybertruck-from-the-future-now-0-60-in-2-9s-from-39900/	44	35	STANDARD
cybertruck_top_speed	Q0	http://www.newsweek.com/tesla-cybertruck-ford-f150-price-sales-specs-comparison-electric-pickup-trucks-1474166	45	34	STANDARD
cybertruck_top_speed	Q0	http://www.roadandtrack.com/new-cars/future-cars/a29877700/tesla-cybertruck-pickup-debut-photos-specs/	46	33	STANDARD
cybertruck_top_speed	Q0	http://edition.cnn.com/2019/11/22/cars/tesla-cybertruck-electric-pickup-truck/index.html	47	32	STANDARD
cybertruck_top_speed	Q0	http://hiphopwired.com/playlist/elon-musk-tesla-cybertruck-jokes/	48	31	STANDARD
cybertruck_top_speed	Q0	http://en.wikipedia.org/wiki/Tesla_Cybertruck	49	30	STANDARD
cybertruck_top_speed	Q0	http://www.arabianbusiness.com/transport/434429-dubai-polices-next-supercar-tesla-cybertruck	50	29	STANDARD
cybertruck_top_speed	Q0	http://www.carmagazine.co.uk/car-news/first-official-pictures/tesla/cybertruck-electric-pick-up/	51	28	STANDARD
cybertruck_top_speed	Q0	http://ev-database.uk/car/1250/Tesla-Cybertruck-Tri-Motor	52	27	STANDARD
cybertruck_top_speed	Q0	http://www.cbsnews.com/news/tesla-cybertruck-glass-break-elon-musk-pickup-truck/	53	26	STANDARD
cybertruck_top_speed	Q0	http://www.automobilemag.com/news/tesla-cybertruck-electric-pickup-truck-photos-range-specs/	54	25	STANDARD
cybertruck_top_speed	Q0	http://www.kbb.com/car-news/tesla-cybertruck/2100008049/	55	24	STANDARD
cybertruck_top_speed	Q0	http://www.topspeed.com/cars/car-news/tesla-unveiled-it-s-rad-new-cyberquad-electric-atv-prototype-at-the-cybertruck-launch-ar187116.html	56	23	STANDARD
cybertruck_top_speed	Q0	http://www.autoexpress.co.uk/tesla/cybertruck/96447/new-tesla-cybertruck-full-specs-pricing-and-images	57	22	STANDARD
cybertruck_top_speed	Q0	http://topspeed.rs/zanimljivosti/ko-je-jaci-tesla-cybertruck-vs-ford-f-150-video-3324.html	58	21	STANDARD
cybertruck_top_speed	Q0	http://www.usatoday.com/story/money/cars/2019/11/21/tesla-cybertruck-electric-pickup-truck-elon-musk/4268316002/	59	20	STANDARD
cybertruck_top_speed	Q0	http://www.slashgear.com/tesla-cybertruck-specs-elon-musks-pickup-by-the-numbers-22601156/	60	19	STANDARD
cybertruck_top_speed	Q0	http://www.thedrive.com/news/31349/forget-the-cybertruck-get-yourself-a-factory-1997-chevrolet-s-10-electric-pickup	61	18	STANDARD
cybertruck_top_speed	Q0	http://www.cnet.com/roadshow/news/top-5-jaw-dropping-moments-from-teslas-cybertruck-unveil/	62	17	STANDARD
cybertruck_top_speed	Q0	http://www.geekwire.com/2019/elon-musk-shatters-stereotypes-windows-teslas-electric-edgy-cybertruck/	63	16	STANDARD
cybertruck_top_speed	Q0	http://www.wheelsjoint.com/tesla-cybertruck-vs-rivian-r1t-vs-bollinger-b2-comparison/	64	15	STANDARD
cybertruck_top_speed	Q0	http://www.theverge.com/2019/11/22/20976539/tesla-cybertruck-test-drive-electric-truck-pickup-video-features-price-elon-musk	65	14	STANDARD
cybertruck_top_speed	Q0	http://www.just-auto.com/analysis/cybertruck-and-other-tesla-future-models_id192414.aspx	66	13	STANDARD
cybertruck_top_speed	Q0	http://www.independent.co.uk/life-style/gadgets-and-tech/news/elon-musk-tesla-cybertruck-crash-a9238921.html	67	12	STANDARD
cybertruck_top_speed	Q0	http://www.dezeen.com/2019/11/22/cybertruck-tesla-elon-musk-electric-vehicle-steel/	68	11	STANDARD
cybertruck_top_speed	Q0	http://www.businessinsider.my/tesla-cybertruck-and-ugliest-cars-ever-made-2019-11/	69	10	STANDARD
cybertruck_top_speed	Q0	http://ev-database.org/car/1250/Tesla-Cybertruck-Tri-Motor	70	9	STANDARD
cybertruck_top_speed	Q0	http://www.youtube.com/watch?v=9P_1_oLGREM	71	8	STANDARD
cybertruck_top_speed	Q0	http://www.topspeed.sk/teslu-cybertruck-natocili-v-premavke-skvely-marketing-pokracuje/16923	72	7	STANDARD
cybertruck_top_speed	Q0	http://www.tesla.com/cybertruck	73	6	STANDARD
cybertruck_top_speed	Q0	http://www.teslarati.com/tesla-model-3-0-60-mph-in-2-9-sec-after-ota-software-update/	74	5	STANDARD
cybertruck_top_speed	Q0	http://www.extremetech.com/extreme/302489-tesla-unveils-cybertruck-f-150	75	4	STANDARD
cybertruck_top_speed	Q0	http://www.cnn.com/2019/11/22/cars/tesla-cybertruck-electric-pickup-truck/index.html	76	3	STANDARD
cybertruck_top_speed	Q0	http://www.teslarati.com/tesla-model-3-performance-autobahn-high-speed-test-video/	77	2	STANDARD
cybertruck_top_speed	Q0	http://www.autotrader.com/car-reviews/tesla-cybertruck-first-look-281474979977745	78	1	STANDARD
cybertruck_top_speed	Q0	http://www.citylab.com/transportation/2019/11/tesla-cybertruck-science-fiction-apocalypse-electric-pickup/602521/	79	0	STANDARD
