scottish fold lifespan;http://catscottishfold.com/scottish-fold-munchkins-size-lifespan/;Scottish Fold Munchkins – Traits, Size and Lifespan ...;Dec 19, 2018 · Lifespan & health of a Scottish Fold Munchkin . A healthy Scottish Kilt can live a good, long life of 11 to 15 years of age. Emphasis on healthy. Because of their parent-breeds, these little cats can get all the associated health problems. Here’s what this means: Scottish Folds, because of their gene giving the folded ears, are also prone to other genetic diseases.
scottish fold lifespan;http://www.scottishfoldlove.com/scottish-fold-life-expectancy/;Scottish Fold Life Expectancy | Scottish Fold Love 2015;The typical Scottish Fold lifespan is about 15 years. But things can get complicated, read about scottish fold life expectancy and how to increase it.
scottish fold lifespan;http://www.worldlifeexpectancy.com/cat-life-expectancy-scottish-fold;LIFE SPAN OF SCOTTISH FOLD;Explore Scottish Fold life span data with pictures, origin and history. Explore Scottish Fold life span data with pictures, origin and history. ... The Scottish Fold was granted championship status by The Cat Fanciers’ Association (CFA) in 1978. MORE IN NATURAL/MUTATION GROUP. Cymric. Mekong Bobtail. American Wirehair.
scottish fold lifespan;http://thescottishfold.com/more-about-the-scottish-fold-breed/scottish-fold-health-issues/;Fold Health Issues | The Scottish Fold.The Scottish Fold.;The Scottish Fold is a hardy breed. Their life expectancy is about 15 years. When properly bred, they do not have any special health or grooming issues. Without getting into the genetics of the breed, let’s just say there are strict breeding guidelines in order to maintain the health of the breed.
scottish fold lifespan;http://www.bestpetcarehub.com/scottish-fold-cat/;Scottish Fold Cat |Personality | Lifespan | Caring For ...;Researchers have found that this breed lifespan is 11 to. 15 years depending upon where you look, these cats have a long lifespan because all the health issues they come across at some point are not life-threatening at all. But these health problems can make life uneasy for them instead.
scottish fold lifespan;http://en.wikipedia.org/wiki/Scottish_Fold;Scottish Fold - Wikipedia;The typical lifespan of a Scottish Fold is 15 years. Scottish folds are susceptible to polycystic kidney disease (PKD) and cardiomyopathy. Scottish folds are also prone to degenerative joint disease, most commonly affecting the tail, ankles, and knees which can result in reduced range of motion. Osteochondrodysplasia
scottish fold lifespan;http://www.catbreedsjunction.com/scottish-fold-cats.html;Scottish Fold Cats - Breed Profile and Facts;life expectancy of the scottish fold cat Cat life span depends on numerous things which are explained in detail in the chapter on how long do cats live. The average life span for these cats is 12 years .
scottish fold lifespan;http://cattime.com/cat-breeds/scottish-fold-cats;Scottish Fold Cat Breed Information, Pictures ...;Coat Color And Grooming.  He may also have a ruff around the neck. The Scottish Fold comes in a number of colors and patterns, including solid, tabby, tabby and white, bicolor and particolor. Eye color depends on coat color. For instance, white and bicolor cats can have blue eyes or odd eyes (each eye is a different color).
scottish fold lifespan;http://www.thesprucepets.com/scottish-fold-profile-551898;Scottish Fold Cat — Full Profile, History, and Care;Genetics and Breeding of the Scottish Fold.  There is controversy as to whether these cats have a good quality of life or whether they are prone to pain and disability. These cats with folded ears are bred to cats that do not display the folded ear trait to ensure none of the litter receive two copies of the gene.
scottish fold lifespan;http://www.amazon.com/Scottish-Folds-Cats-Pets-Information/dp/1946286184;Scottish Folds Cats as Pets: Scottish Fold Facts ...;Apr 28, 2019 · Scottish Folds Cats as Pets: Scottish Fold Facts & Information, where to buy, health, diet, lifespan, types, breeding, care and more! A Complete Scottish Fold Care Guide [Lolly Brown] on Amazon.com. *FREE* shipping on qualifying offers. Most cats are said to be aloof and independent therefore many people who are just as independent choose to take in cats instead of dogs as pets.
scottish fold lifespan;http://www.anniemany.com/2013/10/scottish-fold-cat-sizeweight-and-life.html;Scottish Fold Cat Size,Weight and Life Expectancy - Annie Many;An Adult Scottish Fold cat would weigh around 3.5-5.5 kg or 7.7-12.1 lbs.They have good long lifespan.Average lifespan for a Scottish Fold is about 12-15 years.
scottish fold lifespan;http://www.circleoflifecattery.com/;Circle Of Life Cattery - Munchkin & Scottish Kilt Breeder ...;Circle Of Life is a dual TICA/CFF registered cattery located in Saskatchewan, Canada. We breed Munchkin and Scottish Kilt/Gaelic Fold kittens.
scottish fold lifespan;http://www.lifesabeachcattery.com/;Life's a Beach Cattery - Scottish fold kittens;Elite Luxury scottish Fold Kittens for sale. Home About us Nursery~Available Kittens Kings & Queens FOLDEX & EXOTIC SH Pricing & Contract Adopted Foldies Honey Mooners Lifes A Beach Cattery Blog ( 850)960-6309 *Life's A Beach Cattery* Elite Luxury Scottish Folds ...
scottish fold lifespan;http://cfa.org/Breeds/BreedsSthruT/ScottishFold.aspx;Breed Profile: The Scottish Fold;Scottish Folds come in two types: folded ear and straight (normal) ear. The folded ear is produced by an incomplete dominant gene and is the result of a spontaneous mutation. Over the last two decades the Scottish Fold has developed a look all its own…even though allowed outcrosses include American Shorthairs and British Shorthairs.
scottish fold lifespan;http://kittentoob.com/20-things-you-didnt-know-about-scottish-fold-cats/;20 Fun Facts You Didn't Know about Scottish Fold Cats;The import of the Scottish Fold may be a reminder to us that we need to stay the course on accepting imperfection in life. We may end up being their last refuge. When you go back and look at the list, the genetic problems usually only occur with in-breeding.
scottish fold lifespan;http://www.catbreedslist.com/all-cat-breeds/Scottish-Fold.html;Scottish Fold - Information, Characteristics, Facts, Names;The Scottish Fold usually bonds to one person, following you from room to room like a loyal puppy. This playful, intelligent breed has two coat varieties, longhair and shorthair. Scottish Folds are normally affectionate, calm and well-behaved.
scottish fold lifespan;http://www.amazon.com/Scottish-Folds-Cats-Pets-Information-ebook/dp/B06XXV8PR2;Scottish Folds Cats as Pets: Scottish Fold Facts ...;Apr 28, 2019 · Scottish Folds Cats as Pets: Scottish Fold Facts & Information, where to buy, health, diet, lifespan, types, breeding, care and more! A Complete Scottish Fold Care Guide - Kindle edition by Lolly Brown. Download it once and read it on your Kindle device, PC, phones or tablets. Use features like bookmarks, note taking and highlighting while reading Scottish Folds Cats as Pets: Scottish Fold ...
scottish fold lifespan;http://myfavpet.com/scottish-straight-cat/;Scottish Straight Cat & Kittens. Breed Personality. Health ...;The homeland of cats is Scotland. This unusually cute furry breed of Scottish Straight cats appeared in this country. Scottish Straight is an independent breed from recent times. It is due to the fact that the kittens Scottish Straight are the “children” of the Scottish Fold cats, who (when they reach the age of a month) have straight ears.
scottish fold lifespan;http://www.scottishfoldlove.com/scottish-fold-temperament-and-personality/;Scottish fold temperament and personality | Scottish Fold ...;A Scottish fold Funny as Hell. Finishing our post about Scottish folds temperament i believe it is worth mentioning probably the most famous and fun Scottish fold around the globe. I am talking about Maru of course. Maru is an internet celebrity and well know for his(yes he is a male) love for boxes.
scottish fold lifespan;http://www.floppycats.com/average-lifespan-of-a-ragdoll-cat.html;Average Lifespan of a Ragdoll Cat - Floppycats;Originally published Nov 28, 2014. Rags on Patio 2008 How Long Does a Ragdoll Cat Live? When my childhood Ragdoll cat, Rags, was around 14 years old, I remember Googling what the average lifespan of a Ragdoll cat was. I found out that the average lifespan of a Ragdoll is 9-15 years. Of course, with Rags being 14, I wasn’t crazy about reading that!
scottish fold lifespan;http://gulfnews.com/going-out/society/the-painful-life-of-a-scottish-fold-cat-1.2261004;The painful life of a Scottish Fold cat | Society – Gulf News;The Scottish Fold cat, a breed of domestic cat, suffers from a form of dwarfism and carries a natural dominant-gene mutation that affects bones and cartilage in their body.
scottish fold lifespan;http://kittens-nyc.com/;Kittens.nyc Sharlott cattery, scottish fold kittens for sale;For many years, the Scottish Fold has been named the country's most popular breed according to the Governing Council of the Cat Fancy (GCCF), and with its affectionate nature and teddy-bear good looks, it's not hard to see why. As far as personality goes, the Scottish Fold is …
scottish fold lifespan;http://www.gopetsamerica.com/profiles/scottishfold.aspx;Scottish Fold Cat Breed - Go Pets America;Scottish Folds come in two types: folded ear and straight (normal) ear. The folded ear is produced by an incomplete dominant gene and is the result of a spontaneous mutation. The foremost characteristic distinguishing the Scottish Fold cat is its small ears which fold …
scottish fold lifespan;http://www.youtube.com/watch?v=2QntT9owoV0;Scottish Fold Cats Compilation 2018 - YouTube;Jan 30, 2018 · Scottish Folds are a unique breed of cats who are known for their round faces, big eyes and folded ears. These are some of the cutest cats you'll ever …
scottish fold lifespan;http://www.fanciers.com/breed-faqs/scottish-fold-faq.html;Scottish Fold: Cat Breed FAQ - Fanciers;In general the Scottish Fold is a healthy, hardy cat with a lifespan of approximately 15 yrs. Early in the development of this breed a degenerative joint disease was discovered to be linked with breeding folded-eared cats to folded-eared cats.
scottish fold lifespan;http://www.catscenterstage.com/breeds/scottish-fold2.shtml;CatsCenterstage: Breed Profile - The Scottish Fold;You may expect a long life span from your Scottish Fold. Many are known to have reached the age of fifteen to eighteen years old. When handling the Scottish Fold, always carry them with both hands or tucked against one hip with an arm around them. These …
scottish fold lifespan;http://myscottishfold.com/;Scottish Fold;Is a Scottish Fold a Good Pet for Me? Whether you are a cat lover, a dog lover, single, have small children, whether you live in a mansion or one room shack,whether you are experienced cat fancier or someone who does not understand why anyone would want to own a cat, a Scottish Fold is guaranteed to win your heart and make you a fan for life!
scottish fold lifespan;http://www.ukpets.com/cat-breeds/scottish-fold;Scottish Fold Cat Breed Information | UK Pets;On average, the Scottish Fold cat’s life expectancy ranges from 12-15 years. Although it is a healthy breed, it is prone to develop the following hereditary health issues: Osteochondrodystophy – this affects bone and cartilage development.
scottish fold lifespan;http://bowwowinsurance.com.au/cats/cat-breeds/scottish-fold/;Scottish Fold Cat Breed Information | Temperament & Health;The Scottish Fold is a relatively new breed of cat that was developed during the 1960s. It has been reported that the first Scottish Fold was a cat named Susie that came from a farm near Coupar Angus in the Tayside Area of Scotland.
scottish fold lifespan;http://thescottishfold.com/more-about-the-scottish-fold-breed/scottish-fold-temperament/;Fold Temperament | The Scottish Fold.The Scottish Fold.;Typically, it has been said the Scottish Fold is a sweet-natured cat who is usually quiet voiced and loves to help supervise whatever you happen to be doing. Stanley is quiet voiced and does pay attention to what is going on, but I wouldn't say he is right there helping me with everything. ...
