cybertruck top speed;http://www.topspeed.com/cars/car-news/tesla-cybertruck-vs-ford-f-150-quick-comparison-ar187117.html;Tesla Cybertruck Vs Ford F-150: Quick Comparison | Top Speed;Nov 22, 2019 ·  The dual-motor AWD can go higher at 120 mph, while the range-topping tri-motor AWD has a top speed rating of 130 mph. That's pretty impressive for an all-electric truck.
cybertruck top speed;http://www.topspeed.com/cars/tesla-cybertruck/ke6235.html;Tesla CybrTrk Aka CyberTruck Aka Tesla Pickup | Top Speed;The Cybertruck is bulletproof, has a starting sticker of $39,000, it can carry a matching ATV inside the bed, but it can also pull 14,000 pounds, clear the quarter mile in 10.8 seconds, and spring ...
cybertruck top speed;http://www.evspecifications.com/en/model-speed/d4ddee;2021 Tesla Cybertruck Single Motor RWD - Top speed;The top speed of the 2021 Tesla Cybertruck Single Motor RWD and other Tesla models with the same or similar top speed. 2021 Tesla Cybertruck Single Motor RWD 110.0 mph / 177.0 km/h 2013 Tesla Model S Base 40 RWD
cybertruck top speed;http://www.evspecifications.com/en/model/800fef;2021 Tesla Cybertruck Dual Motor AWD - Specifications and price;Specifications of 2021 Tesla Cybertruck Dual Motor AWD. Top speed: 119.9 mph / 193.0 km/h. Market-dependent prices, MSRP. Market-dependent prices, MSRP.
cybertruck top speed;http://www.topspeed.com/cars/car-news/tesla-cybertruck-reveal-performance-expectations-and-specs-ar187083.html;Tesla Cybertruck Reveal – Performance Expectations and Specs;Nov 20, 2019 ·  The Cybertruck needs to avoid this if it’s going to be taken seriously on the truck market. Musk has promised a 400-500 mile range “option,” but it could potentially go higher, especially ...
cybertruck top speed;http://www.motortrend.com/news/tesla-cybertruck-electric-pickup-fast-0-60-range-payload-towing/;How Fast is the Tesla Cybertruck? And How Much Can It Tow ...;Nov 22, 2019 ·  Prices for the Cybertruck start at $39,900 for the single-motor version, step up to $49,900 for the dual-motor, and top out at $69,900.
cybertruck top speed;http://www.topspeed.com/cars/car-news/is-the-tesla-cybertruck-really-faster-or-better-than-the-porsche-911-ar187088.html;Is the Tesla Cybertruck Really Faster or "Better" Than the ...;Nov 22, 2019 ·  But while it’s indeed quicker than the 911, the Cybertruck has a lower top speed. The base truck will hit 110 mph, the mid-range model will reach 120 mph, while the range-topping version will ...
cybertruck top speed;http://www.topspeed.com/cars/car-news/tesla-s-cybertruck-destroys-the-ford-f-150-in-painful-tug-of-war-battle-ar187115.html;Tesla's Cybertruck Destroys the Ford F-150 in Painful Tug-of ...;Nov 22, 2019 ·  Tesla’s Model S and Model Y have already proven that electric vehicles can top gasoline cars in terms of performance, but is the Cybertruck better than the iconic Ford F-150? Yes it is! Tesla ...
cybertruck top speed;http://www.topspeed.com/cars/car-news/how-will-the-tesla-cybertruck-behave-in-a-crash-ar187132.html;How Will The Tesla Cybertruck Behave In A Crash? @ Top Speed;And, considering the top of the roof acts like a cross member adding chassis rigidity, would a roll-over crash be a Cybertruck’s biggest enemy? Franz throws steel ball at Cybertruck window right ...
cybertruck top speed;http://www.topspeed.com/cars/car-news/hope-for-the-cybertruck-restored-as-image-of-young-elon-musk-replacing-a-window-surfaces-on-twitter-ar187282.html;Hope for the Cybertruck Restored as Image of Young Elon Musk ...;Dec 12, 2019 ·  Hope for the Cybertruck Restored as Image of Young Elon Musk Replacing a Window Surfaces on Twitter ... I hotrodded it by jamming in a 5 speed transmission from a later model I found in a Philly ...
cybertruck top speed;http://www.caranddriver.com/tesla/cybertruck;Tesla Cybertruck: What We Know So Far;The dual-motor Cybertruck will reportedly reach 60 mph in just 4.5 ticks and have a top speed of 120 mph. Those looking for the ultimate performance will appreciate the three-motor model, which...
cybertruck top speed;http://www.evspecifications.com/en/model-acceleration/800fef;2021 Tesla Cybertruck Dual Motor AWD - Acceleration;Top speed: 119.9 mph / 193.0 km/h ... The acceleration of the 2021 Tesla Cybertruck Dual Motor AWD and electric cars by other brands with the same or similar 0-100 km ...
cybertruck top speed;http://www.topspeed.com/cars/car-news/tesla-unveiled-it-s-rad-new-cyberquad-electric-atv-prototype-at-the-cybertruck-launch-ar187116.html;Tesla Unveiled It's Rad New “Cyberquad” Electric ATV ...;Nov 24, 2019 ·  Tesla created the biggest buzz in the industry yesterday when it launched a radical new pickup truck, the cybertruck, and along with that, elon musk gave us "one more thing" - the cyberquad ...
cybertruck top speed;http://www.youtube.com/watch?v=vJblJX7dn4s;GTA V : CYBERTRUCK TOP SPEED 🔥 | TESLA | RG Gamer - YouTube;Dec 06, 2019 ·  This video is unavailable. Watch Queue Queue
cybertruck top speed;http://www.evspecifications.com/en/model-speed/ce47f0;2022 Tesla Cybertruck Tri Motor AWD - Top speed;The top speed of the 2022 Tesla Cybertruck Tri Motor AWD and other Tesla models with the same or similar top speed. 2021 Tesla Cybertruck Single Motor RWD 110.0 mph / 177.0 km/h 2013 Tesla Model S Base 40 RWD
cybertruck top speed;http://www.youtube.com/watch?v=v1uJF8K4KoI;2021 Tesla Cybertruck – High-Performance Electric Truck - YouTube;Nov 22, 2019 ·  That starting price will be a single-motor, rear-drive truck with 250 miles of range, a 6.5-second 0-60 time with a top speed of 110 mph, and a 7,500-pound towing capacity.
cybertruck top speed;http://www.evspecifications.com/en/model-speed/800fef;2021 Tesla Cybertruck Dual Motor AWD - Top speed;The top speed of the 2021 Tesla Cybertruck Dual Motor AWD and other Tesla models with the same or similar top speed. 2021 Tesla Cybertruck Single Motor RWD 110.0 mph / 177.0 km/h 2013 Tesla Model S Base 40 RWD
cybertruck top speed;http://www.evspecifications.com/en/model/ce47f0;2022 Tesla Cybertruck Tri Motor AWD - Specifications and price;Specifications of 2022 Tesla Cybertruck Tri Motor AWD. Top speed: 129.9 mph / 209.0 km/h. Market-dependent prices, MSRP. Market-dependent prices, MSRP.
cybertruck top speed;http://www.carscoops.com/2019/11/tesla-cybertruck-from-the-future-now-0-60-in-2-9s-from-39900/;Tesla Cybertruck Is A Pickup From The Future Now; 0-60 In 2 ...;There will be two other models available, the base Single Motor RWD Cybertruck priced at $39,900 with a 250+ mile (400+ km) range and 0-60 in 6.5 sec, and the mid-level Dual Motor variant that ...
cybertruck top speed;http://www.equipmentworld.com/tesla-unveils-the-cybertruck-heres-how-it-compares-to-normal-trucks-video/;Tesla unveils the Cybertruck. Here's how it compares to ...;130 mph top speed; 14,000 lbs. towing capacity . How does the Cybertruck compare to conventional half-ton trucks? Each of those configurations offers a pretty impressive list of specs for the ...
cybertruck top speed;http://www.reddit.com/r/cybertruck/comments/e9suu9/will_tesla_make_the_cybertruck_faster_top_speed/;Will Tesla make the Cybertruck faster (top speed ...;Will Tesla make the Cybertruck faster (top speed)? I think 130mph is quite slow at full speed, and for people in the autobahn it’d be weird to see gas cars just cruising past the futuristic cyberpunk vehicle which is supposedly bullet proof (marketed as such).
cybertruck top speed;http://www.wsupercars.com/tesla-2022-cybertruck.php;2022 Tesla Cybertruck Wallpapers, Specs & Videos - 4K HD ...;The Cybertruck is set to be available in single, double and triple motor configurations, with upwards of 500 miles of range from the as-yet undisclosed battery pack. Performance is set to be brisk with Tesla claiming a 0-60 mph time of under 2.9 seconds.
cybertruck top speed;http://www.teslarati.com/tesla-model-3-performance-autobahn-high-speed-test-video/;Tesla Model 3 Performance tries to overheat in high speed ...;Jun 15, 2019 ·  Tesla owner and longtime electric car advocate Bjorn Nyland recently took his Model 3 Performance to the Autobahn in order to test the vehicle’s limits in sustained high-speed driving. More ...
cybertruck top speed;http://www.reddit.com/r/TeslaLounge/comments/e9sw7a/hopefully_cybertruck_gets_higher_top_speed/;Hopefully Cybertruck gets higher top speed : TeslaLounge;Hopefully Cybertruck gets higher top speed General I think 130mph is quite slow at full speed, and for people in the autobahn it’d be weird to see gas cars just cruising past the futuristic cyberpunk vehicle which is supposedly bullet proof (marketed as such).
cybertruck top speed;http://www.youtube.com/user/topspeeddotcom;TopSpeed - YouTube;TopSpeed channel offers daily videos and slideshows about the latest cars and motorcycles. ... The new 2020 Audi RS Q8 is the top model in the Q product line. ... The 2021 Tesla Cybertruck has ...
cybertruck top speed;http://www.financialexpress.com/auto/car-news/tesla-cybertruck-electric-pickup-truck-unveiled-tesla-in-india-range-price-top-speed/1772123/;Tesla Cybertruck electric pickup truck unveiled: 0-100 km/h ...;Nov 22, 2019 ·  The top trim of the Tesla Cybertruck will come with three electric motors, an all-wheel-drive system, a towing capacity of about 6350 kg, and a battery range of 800 km. ... Payment plan, top speed ...
cybertruck top speed;http://www.geekwire.com/2019/elon-musk-shatters-stereotypes-windows-teslas-electric-edgy-cybertruck/;Tesla’s Elon Musk shatters stereotypes (and windows) with ...;Nov 21, 2019 ·  Speed and acceleration: 0-60 mph in 6.5 seconds for single-motor RWD, with top speed of 110 mph. For the dual-motor AWD model, 0-60 in 4.5 seconds with 120 mph top speed.
cybertruck top speed;http://www.trustedreviews.com/news/tesla-cybertruck-design-bulletproof-price-release-date-speed-3957265;Tesla Cybertruck is the craziest pick-up ever – and we love ...;Nov 22, 2019 ·  Tesla Cybertruck was finally unveiled on Thursday night and Elon Musk did not disappoint with an audacious-looking pick-up truck like nothing ever seen. ... as well as a top speed of 130mph and ...
cybertruck top speed;http://www.teslarati.com/tesla-model-3-0-60-mph-in-2-9-sec-after-ota-software-update/;Tesla Model 3 nails 0-60 mph in 2.9 sec after OTA software update;His vehicle’s pre-update time was 11.637 seconds, with a top speed of 115.485 MPH, but this time was beaten by the 5% power increase, capturing an 11.486 second time and a top speed of 117.495 ...
cybertruck top speed;http://autoacademies.com/2019/11/23/how-fast-is-the-tesla-cybertruck-and-how-much-can-it-tow/;How Fast is the Tesla Cybertruck? And How Much Can It Tow ....;Nov 23, 2019 ·  The Cybertruck Tri Motor also has the highest top speed, longest range, and highest payload capacity of the Tesla truck lineup. It’s got a 130 mph top speed, a Tesla-estimated 500 miles of range, and a claimed best-in-class tow capacity of 14,000 pounds.
