Hekla_number_of_eruptions_in_the_XX_century	Q0	http://www.prisonplanet.com/the-number-of-volcanoes-erupting-right-now-is-greater-than-the-20th-centurys-yearly-average.html	1	78	STANDARD
Hekla_number_of_eruptions_in_the_XX_century	Q0	http://www.icelandontheweb.com/articles-on-iceland/nature/volcanoes/hekla/	2	77	STANDARD
Hekla_number_of_eruptions_in_the_XX_century	Q0	http://www.britannica.com/place/Hekla	3	76	STANDARD
Hekla_number_of_eruptions_in_the_XX_century	Q0	http://balticlivecam.com/your-stream/natural-phenomenon/hekla-volcano/	4	75	STANDARD
Hekla_number_of_eruptions_in_the_XX_century	Q0	http://volcanic-eruption.com/hekla-on-fire-the-eruption-of-hekla-1947-48/	5	74	STANDARD
Hekla_number_of_eruptions_in_the_XX_century	Q0	http://www.extremeiceland.is/en/travel-guide/eruptions-in-iceland-since-1900	6	73	STANDARD
Hekla_number_of_eruptions_in_the_XX_century	Q0	http://notendur.hi.is/mtg/nemritg/JM-MPaed_2010.pdf	7	72	STANDARD
Hekla_number_of_eruptions_in_the_XX_century	Q0	http://earthice.hi.is/hekla_volcano	8	71	STANDARD
Hekla_number_of_eruptions_in_the_XX_century	Q0	http://www.volcanodiscovery.com/hekla.html	9	70	STANDARD
Hekla_number_of_eruptions_in_the_XX_century	Q0	http://icelandmag.is/article/archaeological-find-thjorsardalur-viking-age-farm-destroyed-1104-hekla-eruption	10	69	STANDARD
Hekla_number_of_eruptions_in_the_XX_century	Q0	http://en.wikipedia.org/wiki/Mt._Hekla	11	68	STANDARD
Hekla_number_of_eruptions_in_the_XX_century	Q0	http://en.wikipedia.org/wiki/List_of_large_volcanic_eruptions_of_the_20th_century	12	67	STANDARD
Hekla_number_of_eruptions_in_the_XX_century	Q0	http://www.geologyin.com/2016/06/hekla-volcano-ready-to-unleash-major.html	13	66	STANDARD
Hekla_number_of_eruptions_in_the_XX_century	Q0	http://lavacentre.is/more-than-one-fiery-candidate/	14	65	STANDARD
Hekla_number_of_eruptions_in_the_XX_century	Q0	http://www.butterfield.com/blog/2016/08/29/things-to-do-in-iceland/	15	64	STANDARD
Hekla_number_of_eruptions_in_the_XX_century	Q0	http://matadornetwork.com/read/7-volcanoes-going-erupt-moment/	16	63	STANDARD
Hekla_number_of_eruptions_in_the_XX_century	Q0	http://hiticeland.com/iceland/notes/the-mountain-hekla-is-an-active-volcano	17	62	STANDARD
Hekla_number_of_eruptions_in_the_XX_century	Q0	http://pages.mtu.edu/~raman/papers2/Thordarson%20and%20Hoskuldsson%202008%20Postglacial%20volcanism.pdf	18	61	STANDARD
Hekla_number_of_eruptions_in_the_XX_century	Q0	http://adventures.is/iceland/attractions/hekla-volcano/	19	60	STANDARD
Hekla_number_of_eruptions_in_the_XX_century	Q0	http://all-geo.org/volcan01010/2011/08/a-taste-of-hekla/	20	59	STANDARD
Hekla_number_of_eruptions_in_the_XX_century	Q0	http://volcano.oregonstate.edu/vwdocs/volc_images/europe_west_asia/eruption_history.html	21	58	STANDARD
Hekla_number_of_eruptions_in_the_XX_century	Q0	http://lavacentre.is/guide-to-hekla/	22	57	STANDARD
Hekla_number_of_eruptions_in_the_XX_century	Q0	http://www.volcanodiscovery.com/hekla/news.html	23	56	STANDARD
Hekla_number_of_eruptions_in_the_XX_century	Q0	http://adsabs.harvard.edu/abs/2018GeoRL..45.1805P	24	55	STANDARD
Hekla_number_of_eruptions_in_the_XX_century	Q0	http://guidetoiceland.is/nature-info/the-most-infamous-eruptions-in-icelandic-history	25	54	STANDARD
Hekla_number_of_eruptions_in_the_XX_century	Q0	http://www.wired.com/2016/06/icelands-hekla-volcano-really-blow/	26	53	STANDARD
Hekla_number_of_eruptions_in_the_XX_century	Q0	http://agupubs.onlinelibrary.wiley.com/doi/full/10.1002/2017GL076887	27	52	STANDARD
Hekla_number_of_eruptions_in_the_XX_century	Q0	http://agupubs.onlinelibrary.wiley.com/doi/pdf/10.1002/2017GL076887	28	51	STANDARD
Hekla_number_of_eruptions_in_the_XX_century	Q0	http://www.researchgate.net/profile/Jorge_Montalvo-Jonsson/publication/281211298_Evaluation_of_lava_flow_volumes_from_Hekla_volcano_based_on_new_topographic_data/links/55dbbaa008aeb38e8a8b8f14.pdf?origin=publication_detail	29	50	STANDARD
Hekla_number_of_eruptions_in_the_XX_century	Q0	http://www.nature.com/articles/301139a0	30	49	STANDARD
Hekla_number_of_eruptions_in_the_XX_century	Q0	http://www.volcanocafe.org/dissecting-hekla/	31	48	STANDARD
Hekla_number_of_eruptions_in_the_XX_century	Q0	http://en.wikipedia.org/wiki/Hekla	32	47	STANDARD
Hekla_number_of_eruptions_in_the_XX_century	Q0	http://www.wired.com/2013/03/alert-status-raised-at-icelands-hekla/	33	46	STANDARD
Hekla_number_of_eruptions_in_the_XX_century	Q0	http://www.discover-the-world.com/blog/whats-happening-with-hekla/	34	45	STANDARD
Hekla_number_of_eruptions_in_the_XX_century	Q0	http://www.researchgate.net/figure/Lava-flow-thickness-maps-for-Hekla-Mountain-in-the-20th-century-Background-hillshade_fig1_323137511	35	44	STANDARD
Hekla_number_of_eruptions_in_the_XX_century	Q0	http://icelandmonitor.mbl.is/news/nature_and_travel/2017/03/29/unique_photo_of_hekla_eruption_published_for_the_fi/	36	43	STANDARD
Hekla_number_of_eruptions_in_the_XX_century	Q0	http://icelandmonitor.mbl.is/news/nature_and_travel/2019/04/05/the_risk_of_hiking_up_hekla/	37	42	STANDARD
Hekla_number_of_eruptions_in_the_XX_century	Q0	http://www.researchgate.net/publication/226031681_The_1991_eruption_of_Hekla_Iceland	38	41	STANDARD
Hekla_number_of_eruptions_in_the_XX_century	Q0	http://www.iflscience.com/environment/is-icelands-dangerous-hekla-volcano-about-to-explode/	39	40	STANDARD
Hekla_number_of_eruptions_in_the_XX_century	Q0	http://icelandmonitor.mbl.is/news/nature_and_travel/2017/03/29/hekla_shows_signs_of_eruption/	40	39	STANDARD
Hekla_number_of_eruptions_in_the_XX_century	Q0	http://meetingorganizer.copernicus.org/EGU2019/EGU2019-6921.pdf	41	38	STANDARD
Hekla_number_of_eruptions_in_the_XX_century	Q0	http://www.goiceland.com/blog/volcanoes-in-iceland/	42	37	STANDARD
Hekla_number_of_eruptions_in_the_XX_century	Q0	http://www.usgs.gov/faqs/what-was-largest-volcanic-eruption-20th-century	43	36	STANDARD
Hekla_number_of_eruptions_in_the_XX_century	Q0	http://www.iceland.is/the-big-picture/nature-environment/volcanoes	44	35	STANDARD
Hekla_number_of_eruptions_in_the_XX_century	Q0	http://www.icelandtravel.is/attractions/hekla/	45	34	STANDARD
Hekla_number_of_eruptions_in_the_XX_century	Q0	http://www.downtoearth.org.in/news/natural-disasters/bali-s-mt-agung-erupts-again-grounding-450-flights-60979	46	33	STANDARD
Hekla_number_of_eruptions_in_the_XX_century	Q0	http://rafhladan.is/bitstream/handle/10802/12574/The%20millennium%20eruption%20of%20Hekla%20in%20February%202000.pdf?sequence=1	47	32	STANDARD
Hekla_number_of_eruptions_in_the_XX_century	Q0	http://www.nap.edu/read/24650/chapter/6	48	31	STANDARD
Hekla_number_of_eruptions_in_the_XX_century	Q0	http://volcano.si.edu/volcano.cfm?vn=372070	49	30	STANDARD
Hekla_number_of_eruptions_in_the_XX_century	Q0	http://www.ngdc.noaa.gov/hazard/stratoguide/pinfeat.html	50	29	STANDARD
Hekla_number_of_eruptions_in_the_XX_century	Q0	http://www.hotelranga.is/activities/attractions/mt-hekla-volcano	51	28	STANDARD
Hekla_number_of_eruptions_in_the_XX_century	Q0	http://www.indiaenvironmentportal.org.in/files/file/Hekla%20volcano%20Iceland.pdf	52	27	STANDARD
Hekla_number_of_eruptions_in_the_XX_century	Q0	http://www.decadevolcano.net/volcanoes/iceland/hekla.htm	53	26	STANDARD
Hekla_number_of_eruptions_in_the_XX_century	Q0	http://www.geo.umass.edu/faculty/bradley/bradley1992b.pdf	54	25	STANDARD
Hekla_number_of_eruptions_in_the_XX_century	Q0	http://opinvisindi.is/handle/20.500.11815/967?locale-attribute=en	55	24	STANDARD
Hekla_number_of_eruptions_in_the_XX_century	Q0	http://www.cambridge.org/core/journals/journal-of-glaciology/article/glaciological-response-to-distal-tephra-fallout-from-the-1947-eruption-of-hekla-south-iceland/864066B858E2DBD24BA067CD281B3190	56	23	STANDARD
Hekla_number_of_eruptions_in_the_XX_century	Q0	http://orcid.org/0000-0002-0853-8935	57	22	STANDARD
Hekla_number_of_eruptions_in_the_XX_century	Q0	http://www.eldey.de/English/geology/eruptions-in-iceland/eruptions-in-iceland.html	58	21	STANDARD
Hekla_number_of_eruptions_in_the_XX_century	Q0	http://www.terradaily.com/reports/Icelands_Hekla_volcano_ready_to_erupt_experts_999.html	59	20	STANDARD
Hekla_number_of_eruptions_in_the_XX_century	Q0	http://bustravel.is/blog/the-legends-of-icelands-volcanoes	60	19	STANDARD
Hekla_number_of_eruptions_in_the_XX_century	Q0	http://www.classicalcdreview.com/leifs.htm	61	18	STANDARD
Hekla_number_of_eruptions_in_the_XX_century	Q0	http://skalatjorn.is/iceland/	62	17	STANDARD
Hekla_number_of_eruptions_in_the_XX_century	Q0	http://www.nps.gov/katm/learn/nature/volcanoes.htm	63	16	STANDARD
Hekla_number_of_eruptions_in_the_XX_century	Q0	http://www.diva-portal.org/smash/get/diva2:565553/FULLTEXT01.pdf	64	15	STANDARD
Hekla_number_of_eruptions_in_the_XX_century	Q0	http://hraun.vedur.is/ja/skyrslur/contgps/node20.html	65	14	STANDARD
Hekla_number_of_eruptions_in_the_XX_century	Q0	http://waterfire.fas.is/Iceland/Geology.php	66	13	STANDARD
Hekla_number_of_eruptions_in_the_XX_century	Q0	http://www.cru.uea.ac.uk/volcanoes-and-their-effect-on-climate	67	12	STANDARD
Hekla_number_of_eruptions_in_the_XX_century	Q0	http://pubs.usgs.gov/pp/1791/pp1791.pdf	68	11	STANDARD
Hekla_number_of_eruptions_in_the_XX_century	Q0	http://www.bbc.com/news/world-us-canada-44212666	69	10	STANDARD
Hekla_number_of_eruptions_in_the_XX_century	Q0	http://www.nat-hazards-earth-syst-sci.net/14/2265/2014/nhess-14-2265-2014-supplement.pdf	70	9	STANDARD
Hekla_number_of_eruptions_in_the_XX_century	Q0	http://geology.com/novarupta/	71	8	STANDARD
Hekla_number_of_eruptions_in_the_XX_century	Q0	http://www.lavacarrental.is/adventure-extras/iceland-travel-tips/hekla-volcano-and-its-risks	72	7	STANDARD
Hekla_number_of_eruptions_in_the_XX_century	Q0	http://www.vedur.is/media/vedurstofan-utgafa-2019/VI_2019_003_ICAO_final_web.pdf	73	6	STANDARD
Hekla_number_of_eruptions_in_the_XX_century	Q0	http://citeseerx.ist.psu.edu/viewdoc/download?doi=10.1.1.454.7455&rep=rep1&type=pdf	74	5	STANDARD
Hekla_number_of_eruptions_in_the_XX_century	Q0	http://www.jonfr.com/volcano/?p=765	75	4	STANDARD
Hekla_number_of_eruptions_in_the_XX_century	Q0	http://earthsky.org/earth/mount-hekla-was-called-gateway-to-hell	76	3	STANDARD
Hekla_number_of_eruptions_in_the_XX_century	Q0	http://reykjavikcenter.is/info/South/Hekla.aspx	77	2	STANDARD
Hekla_number_of_eruptions_in_the_XX_century	Q0	http://www.nature.com/articles/srep12243	78	1	STANDARD
Hekla_number_of_eruptions_in_the_XX_century	Q0	http://origins.osu.edu/connecting-history/postcard-reykjavik-iceland-s-volcanic-history	79	0	STANDARD
