who_invented_the_self-winding_watch_mechanism	Q0	http://www.historyofwatch.com/watch-history/history-of-automatic-watch/	1	79	STANDARD
who_invented_the_self-winding_watch_mechanism	Q0	http://vintagewatchinc.com/genesis-first-self-winding-watch/	2	78	STANDARD
who_invented_the_self-winding_watch_mechanism	Q0	http://answersdrive.com/who-invented-the-mechanized-clock-3826457	3	77	STANDARD
who_invented_the_self-winding_watch_mechanism	Q0	http://answersdrive.com/when-was-the-first-quartz-watch-invented-2341177	4	76	STANDARD
who_invented_the_self-winding_watch_mechanism	Q0	http://www.rolex.com/about-rolex-watches/rolex-history/1926-1945.html	5	75	STANDARD
who_invented_the_self-winding_watch_mechanism	Q0	http://www.answers.com/Q/Who_invented_the_self_winding_watch	6	74	STANDARD
who_invented_the_self-winding_watch_mechanism	Q0	http://www.harwood-watches.com/en/history/index.html	7	73	STANDARD
who_invented_the_self-winding_watch_mechanism	Q0	http://electronics.howstuffworks.com/gadgets/clocks-watches/question285.htm	8	72	STANDARD
who_invented_the_self-winding_watch_mechanism	Q0	http://oureverydaylife.com/who-invented-the-watch-12150349.html	9	71	STANDARD
who_invented_the_self-winding_watch_mechanism	Q0	http://www.wired.com/2009/11/pl-design/	10	70	STANDARD
who_invented_the_self-winding_watch_mechanism	Q0	http://www.britannica.com/technology/self-winding-watch	11	69	STANDARD
who_invented_the_self-winding_watch_mechanism	Q0	http://www.orientalwatchsite.com/first-automatic-watch-harwood-in-the-20s/	12	68	STANDARD
who_invented_the_self-winding_watch_mechanism	Q0	http://en.wikipedia.org/wiki/Watch	13	67	STANDARD
who_invented_the_self-winding_watch_mechanism	Q0	http://www.watchtime.com/featured/10-milestone-moments-in-the-history-of-the-wristwatch/	14	66	STANDARD
who_invented_the_self-winding_watch_mechanism	Q0	http://www.breguet.com/en/history/inventions/self-winding	15	65	STANDARD
who_invented_the_self-winding_watch_mechanism	Q0	http://en.wikipedia.org/wiki/Automatic_watch	16	64	STANDARD
who_invented_the_self-winding_watch_mechanism	Q0	http://answers.yahoo.com/question/index?qid=20100214030439AA3ywAj	17	63	STANDARD
who_invented_the_self-winding_watch_mechanism	Q0	http://www.thoughtco.com/clock-and-calendar-history-1991475	18	62	STANDARD
who_invented_the_self-winding_watch_mechanism	Q0	http://www.chronoexpert.com/blog/what-is-a-self-winding-watch-explained/	19	61	STANDARD
who_invented_the_self-winding_watch_mechanism	Q0	http://www.jurawatches.co.uk/blogs/watch-news/7825365-who-invented-the-self-winding-watch	20	60	STANDARD
who_invented_the_self-winding_watch_mechanism	Q0	http://www.bobswatches.com/watch-resources/perpetual-movement	21	59	STANDARD
who_invented_the_self-winding_watch_mechanism	Q0	http://www.answers.com/Q/What_is_meant_by_self_winding_watch	22	58	STANDARD
who_invented_the_self-winding_watch_mechanism	Q0	http://www.swiss-watches-guide.com/automatic-watches.html	23	57	STANDARD
who_invented_the_self-winding_watch_mechanism	Q0	http://www.timetoast.com/timelines/82899	24	56	STANDARD
who_invented_the_self-winding_watch_mechanism	Q0	http://designerwatchesonline.net/automatic-watch/	25	55	STANDARD
who_invented_the_self-winding_watch_mechanism	Q0	http://www.hautehorlogerie.org/en/encyclopaedia/history-of-watchmaking/	26	54	STANDARD
who_invented_the_self-winding_watch_mechanism	Q0	http://www.quora.com/Who-invented-the-rotor-for-watches	27	53	STANDARD
who_invented_the_self-winding_watch_mechanism	Q0	http://alarmbuzz.com/who-invented-modern-clock/	28	52	STANDARD
who_invented_the_self-winding_watch_mechanism	Q0	http://mb.nawcc.org/threads/history-of-the-self-winding-watch-1770-1931.17941/	29	51	STANDARD
who_invented_the_self-winding_watch_mechanism	Q0	http://www.perrelet.com/en/brand/history	30	50	STANDARD
who_invented_the_self-winding_watch_mechanism	Q0	http://mb.nawcc.org/threads/review-sabrier-%E2%80%9Cthe-self-winding-watch%E2%80%9D-part-2-detailed-comments.87804/	31	49	STANDARD
who_invented_the_self-winding_watch_mechanism	Q0	http://www.gq.com/story/watch-glossary-movement	32	48	STANDARD
who_invented_the_self-winding_watch_mechanism	Q0	http://www.rolex.com/about-rolex-watches/movements.html	33	47	STANDARD
who_invented_the_self-winding_watch_mechanism	Q0	http://www.barringtonwatchwinders.com/blog/watches/the-history-of-automatic-watches-and-the-watch-winder/	34	46	STANDARD
who_invented_the_self-winding_watch_mechanism	Q0	http://www.iwc.com/us/en/forum/the-automatic-movement-comes-from-schaffhausen.html	35	45	STANDARD
who_invented_the_self-winding_watch_mechanism	Q0	http://www.tourneau.com/watch-education/watch-movements.html	36	44	STANDARD
who_invented_the_self-winding_watch_mechanism	Q0	http://www.prestigetime.com/page.php?faq-automatic-watches	37	43	STANDARD
who_invented_the_self-winding_watch_mechanism	Q0	http://www.alexanderwatch.com/2017/12/20/brief-history-automatic-watches/	38	42	STANDARD
who_invented_the_self-winding_watch_mechanism	Q0	http://www.prestigetime.com/page.php?terminology	39	41	STANDARD
who_invented_the_self-winding_watch_mechanism	Q0	http://www.govbergwatches.com/blog/history-of-horology/	40	40	STANDARD
who_invented_the_self-winding_watch_mechanism	Q0	http://www.secondtimearoundwatchco.com/vintageWatchGuide/	41	39	STANDARD
who_invented_the_self-winding_watch_mechanism	Q0	http://eachstepyoutake.com/who-invented-the-pedometer/	42	38	STANDARD
who_invented_the_self-winding_watch_mechanism	Q0	http://www.squireswatches.com/Question%20in%20Time/AUTOMATIC%20WATCHES.htm	43	37	STANDARD
who_invented_the_self-winding_watch_mechanism	Q0	http://gearpatrol.com/2014/04/01/how-does-an-automatic-watch-movement-work/	44	36	STANDARD
who_invented_the_self-winding_watch_mechanism	Q0	http://bespokeunit.com/watches/alarm/	45	35	STANDARD
who_invented_the_self-winding_watch_mechanism	Q0	http://www.prestigetime.com/blog/manual-wind-vs-automatic-watches.html	46	34	STANDARD
who_invented_the_self-winding_watch_mechanism	Q0	http://www.iwc.com/en/forum/the-automatic-movement-comes-from-schaffhausen.html	47	33	STANDARD
who_invented_the_self-winding_watch_mechanism	Q0	http://www.rhymezone.com/r/rhyme.cgi?typeofrhyme=wke&loc=thesql&Word=self-winding	48	32	STANDARD
who_invented_the_self-winding_watch_mechanism	Q0	http://www.montredo.com/en-gb/hand-wound-vs-automatic-watch/	49	31	STANDARD
who_invented_the_self-winding_watch_mechanism	Q0	http://www.seikowatches.com/global-en/products/prospex/special/historyofdiverswatches/	50	30	STANDARD
who_invented_the_self-winding_watch_mechanism	Q0	http://www.longines.com/company/history	51	29	STANDARD
who_invented_the_self-winding_watch_mechanism	Q0	http://www.esquire.com/style/mens-accessories/a10791/quartz-vs-mechanical-movement-082411/	52	28	STANDARD
who_invented_the_self-winding_watch_mechanism	Q0	http://improb.com/best-mechanical-watches-for-men/	53	27	STANDARD
who_invented_the_self-winding_watch_mechanism	Q0	http://www.initium.ch/en/news/how-automatic-watch-movement-works/	54	26	STANDARD
who_invented_the_self-winding_watch_mechanism	Q0	http://www.stuhrling.com/the-magic-of-automatic-movements/	55	25	STANDARD
who_invented_the_self-winding_watch_mechanism	Q0	http://www.chrono24.com/watches/automatic-watches--38.htm	56	24	STANDARD
who_invented_the_self-winding_watch_mechanism	Q0	http://www.watch-wiki.net/index.php?title=Winding	57	23	STANDARD
who_invented_the_self-winding_watch_mechanism	Q0	http://us.tissotshop.com/faq	58	22	STANDARD
who_invented_the_self-winding_watch_mechanism	Q0	http://www.amazon.com/self-winding-watches-Clothing-Shoes-Jewelry/s?k=self+winding+watches&rh=n%3A7141123011	59	21	STANDARD
who_invented_the_self-winding_watch_mechanism	Q0	http://weisswatchcompany.com/pages/usamade-movements	60	20	STANDARD
who_invented_the_self-winding_watch_mechanism	Q0	http://www.watch-wiki.net/index.php?title=Automatic	61	19	STANDARD
who_invented_the_self-winding_watch_mechanism	Q0	http://www.vintagewatchcompany.com/the-history-of-rolex	62	18	STANDARD
who_invented_the_self-winding_watch_mechanism	Q0	http://www.timepiecechronicle.com/features/2017/10/3/thehistoryofthezenithelprimero	63	17	STANDARD
who_invented_the_self-winding_watch_mechanism	Q0	http://omegaforums.net/threads/horology-101-a-brief-history-of-self-winding-watches.78457/	64	16	STANDARD
who_invented_the_self-winding_watch_mechanism	Q0	http://www.ask.com/youtube?q=who+invented+the+self-winding+watch+mechanism&v=LAxDr35h5DA	65	15	STANDARD
who_invented_the_self-winding_watch_mechanism	Q0	http://www.zodiacwatches.com/pages/history	66	14	STANDARD
who_invented_the_self-winding_watch_mechanism	Q0	http://www.newsweek.com/second-time-around-american-made-watches-283165	67	13	STANDARD
who_invented_the_self-winding_watch_mechanism	Q0	http://gallantry.com/blogs/journal/the-history-of-watches	68	12	STANDARD
who_invented_the_self-winding_watch_mechanism	Q0	http://www.freepatentsonline.com/5119348.html	69	11	STANDARD
who_invented_the_self-winding_watch_mechanism	Q0	http://est1897.co.uk/what-is-a-watch-movement-quartz-automatic-manual-kinetic	70	10	STANDARD
who_invented_the_self-winding_watch_mechanism	Q0	http://www.jcwa.or.jp/en/etc/history01.html	71	9	STANDARD
who_invented_the_self-winding_watch_mechanism	Q0	http://www.patek.com/en/collection/movements	72	8	STANDARD
who_invented_the_self-winding_watch_mechanism	Q0	http://www.gq-magazine.co.uk/article/what-is-the-difference-between-an-automatic-and-a-kinetic-movement	73	7	STANDARD
who_invented_the_self-winding_watch_mechanism	Q0	http://www.tudorwatch.com/magazine/article/tudor-history-chronographs-1976-to-1991	74	6	STANDARD
who_invented_the_self-winding_watch_mechanism	Q0	http://calibercorner.com/	75	5	STANDARD
who_invented_the_self-winding_watch_mechanism	Q0	http://www.lugaro.com/stories/perpetual-rotor-rolex/	76	4	STANDARD
who_invented_the_self-winding_watch_mechanism	Q0	http://watchranker.com/watches-invented-history/	77	3	STANDARD
who_invented_the_self-winding_watch_mechanism	Q0	http://zeppelin-watches.com/	78	2	STANDARD
who_invented_the_self-winding_watch_mechanism	Q0	http://hookandgaff.com/blogs/news/mechanical-watch-movement	79	1	STANDARD
who_invented_the_self-winding_watch_mechanism	Q0	http://www.tudorwatch.com/magazine/article/tudor-history-submariners-1954-to-1968	80	0	STANDARD
