sunken US nuclear submarines;http://en.wikipedia.org/wiki/List_of_sunken_nuclear_submarines;List of sunken nuclear submarines - Wikipedia;Nine nuclear submarines have sunk, either by accident or scuttling. The Soviet  Navy has lost five the Russian Navy two, and the ...
sunken US nuclear submarines;http://en.wikipedia.org/wiki/USS_Scorpion_%28SSN-589%29;USS Scorpion (SSN-589) - Wikipedia;USS Scorpion (SSN-589) was a Skipjack-class nuclear powered submarine that  served in the United States Navy and the sixth vessel of the U.S. Navy to carry  that name. Scorpion was lost on 22 May 1968, with 99 crewmen dying in the  incident. She is one of two nuclear submarines the U.S. Navy has lost, the other  being .... Shortly after her sinking, the Navy assembled a Court of Inquiry to  investigate ...
sunken US nuclear submarines;http://en.wikipedia.org/wiki/USS_Thresher_%28SSN-593%29;USS Thresher (SSN-593) - Wikipedia;The second USS Thresher (SSN-593) was the lead boat of her class of nuclear- powered attack submarines in the United States Navy. She was the U.S. Navy's  second submarine to be named after the thresher ..... Ballard's robotic survey  showed that the depth Thresher had sunk caused implosion and total destruction;  the ...
sunken US nuclear submarines;http://interestingengineering.com/uss-thresher-and-scorpion-the-uss-lost-nuclear-submarines;U.S.S. Thresher and Scorpion - The U.S.'s Lost Nuclear ...;Apr 14, 2019 ... In 1963 and 1964, the U.S. lost the nuclear submarines Thresher and ... During a  1963 inquiry into the sinking, Admiral Rickover stated:.
sunken US nuclear submarines;http://en.wikipedia.org/wiki/List_of_lost_United_States_submarines;List of lost United States submarines - Wikipedia;These United States submarines were lost either to enemy action or to "storm or  perils of the ... their patrol areas. The other thirty-three lost submarines are known  to have been sunk by the Japanese. .... Miami was decommissioned on 28 March  2014, to be disposed of via the nuclear Ship-Submarine Recycling Program.
sunken US nuclear submarines;http://www.cnn.com/2019/07/11/us/radioactive-soviet-submarine-leak-trnd/index.html;A sunken Soviet nuclear submarine is leaking unusually high ...;Jul 11, 2019 ... A sunken Soviet nuclear submarine that's been on the sea floor for three decades  is leaking an abnormally high amount of radiation, according ...
sunken US nuclear submarines;http://nypost.com/2019/07/11/sunken-nuclear-submarine-leaking-radiation-into-sea-up-to-800000-times-normal-level/;Sunken nuclear submarine leaking radiation into sea up to ...;Jul 11, 2019 ... Scientists have identified a radiation leak on the wreck of a Russian nuclear  submarine that sank in Arctic waters in 1989.
sunken US nuclear submarines;http://www.npr.org/2019/07/11/740691307/norway-surveys-sunken-soviet-submarine;Norway Surveys Sunken Soviet Submarine - NPR;Jul 11, 2019 ... Norway Surveys Sunken Soviet Submarine ... a survey of a sunken Soviet-era  nuclear submarine that went down 30 years ago. ... at depths of more than 3,000  feet — far below what U.S. submarines could achieve at the time.
sunken US nuclear submarines;http://nationalinterest.org/blog/buzz/nuclear-submarines-have-only-1-recorded-kill-history-94556;Nuclear Submarines Have Only 1 Recorded Kill In History ...;Nov 9, 2019 ... Only one ship has ever been sunk in anger by a nuclear submarine. ... In U.S.  naval doctrine of the time, light cruisers were expected to lay ...
sunken US nuclear submarines;http://www.washingtonpost.com/history/2019/09/26/nuclear-submarine-thresher-was-said-be-americas-best-then-tragedy-struck/;The Thresher: History's deadliest nuclear submarine disaster ...;Sep 26, 2019 ... The 1963 sinking of the Thresher, history's deadliest submarine disaster, killed  129 men. ... The nuclear submarine Thresher was said to be America's best. ...  Thomas J. Wiley, now 75, a retired U.S. Secret Service special ...
sunken US nuclear submarines;http://www.quora.com/What-happens-to-the-reactor-if-a-nuclear-submarine-is-destroyed-by-a-torpedo-mine;What happens to the reactor if a nuclear submarine is destroyed by ...;There are currently 8 sunken nuclear submarines around the world. ... Since the  design of US Navy reactors is to shut down even if all the rods aren't driven into ...
sunken US nuclear submarines;http://theintercept.com/2019/05/29/russia-submarine-kursk-norway-nsa/;Sinking of Russian Nuclear Submarine Known to West Much ...;May 29, 2019 ... Sinking of Russian Nuclear Submarine Known to West Much Earlier Than ... And  yet, long before his incursions in Syria, Ukraine, and the U.S. ...
sunken US nuclear submarines;http://www.dw.com/en/russian-fire-damaged-nuclear-powered-submarines-reactor-isolated/a-49458252;Russian fire-damaged, nuclear-powered submarine′s ... - DW;Jul 4, 2019 ... him that the stricken submarine's nuclear reactor had been contained. ". .... The  submarine fire has also drawn parallels to the sinking of the nuclear-powered ...  Vladimir Putin warns US not to start an arms race 06.08.2019.
sunken US nuclear submarines;http://www.thedrive.com/the-war-zone/28905/the-wreck-of-this-sunken-one-of-a-kind-soviet-nuclear-sub-is-leaking-radiation;The Wreck Of This Sunken One-Of-A-Kind Soviet Nuclear Sub ...;Jul 9, 2019 ... This news comes nearly two weeks after a top-secret Russian nuclear submarine  suffered a fire that killed 14 sailors, though the Kremlin says ...
sunken US nuclear submarines;http://www.livescience.com/65931-radioactive-soviet-submarine-leak.html;A Sunken Soviet Sub Is Raising the Radioactivity of the ...;Jul 15, 2019 ... A Cold War Soviet nuclear submarine met disaster 30 years ago when it sank ...  in May 1983, according to the U.S. Central Intelligence Agency.
sunken US nuclear submarines;http://www.nytimes.com/2019/07/02/world/europe/russia-research-submarine-fire.html;Russian Deep-Sea Military Vessel Catches Fire, Killing 14 ...;Jul 2, 2019 ... The Kursk nuclear submarine that sank in 2000, killing 118 sailors in a ... In the  Kursk sinking and subsequent accidents in Russia's submarine ...
sunken US nuclear submarines;http://www.bermuda-attractions.com/bermuda2_00009d.htm;USS Scorpion: Mystery of the USN Submarine;USS Scorpion (SSN-589) was a Nuclear powered submarine of United States  Navy that ... At the time of her sinking, there were 99 crewmen aboard Scorpion.
sunken US nuclear submarines;http://www.thebalancecareers.com/facts-about-navy-submarines-4058060;Facts About The Navy: How Deep Can A Submarine Go;However, U.S. nuclear-powered submarines can go faster than 23 miles per ...  They can attach to the escape trunk of the sunken submarine and take on the ...
sunken US nuclear submarines;http://www.kitsapsun.com/story/news/2019/07/16/retired-navy-captain-believes-time-now-release-thresher-records/1738878001/;Retired Navy captain believes time is now to ... - Kitsap Sun;Jul 16, 2019 ... The nuclear-powered submarine sank in April 1963, and a retired Navy ... who  penned an analysis on the sinking at the U.S. Naval Institute.
sunken US nuclear submarines;http://www.public.navy.mil/subfor/underseawarfaremagazine/Issues/Archives/issue_07/films_books.htm;Films and Books on Submarines - public.navy.mil;Crash Dive (20th Century Fox, 1943) A U.S. submarine fights the Germans in the  .... 1997) Account about the accidental sinking of a Soviet nuclear submarine off ...
sunken US nuclear submarines;http://www.themoscowtimes.com/2019/07/03/the-deadliest-submarine-accidents-in-soviet-and-russian-history-a66263;The 5 Deadliest Submarine Accidents in Soviet and Russian ...;Jul 3, 2019 ... The Russian nuclear-powered submarine Kursk sank during naval ... in late  February, there are several theories behind the submarine's sinking. ... In 1974,  the U.S. embarked on a covert attempt to recover the submarine, ...
sunken US nuclear submarines;http://americanhistory.si.edu/subs/history/subsbeforenuc/ww2/;Submarine in World War II - Museum of American History;Submarines Before Nuclear Power: Submarines in World War II ... More important , American submarines contributed to the virtual strangling of the Japanese  economy by sinking almost five million tons of shipping—over 60 percent of the ...
sunken US nuclear submarines;http://www.abc.net.au/news/2019-07-12/russian-nuclear-submarine-radiation-levels-norway-sea-wreck/11304468;Radiation still seeping out of Soviet-era nuclear submarine 30 ...;Jul 12, 2019 ... "Russia said yesterday it had sealed a sunken nuclear submarine off ... "[It] allows  us to see exactly where we are taking samples around the ...
sunken US nuclear submarines;http://www.naval-technology.com/features/featureperil-in-the-depths-the-worlds-worst-submarine-disasters-4191027/;Peril in the depths - the world's worst submarine disasters;Mar 6, 2014 ... The US Navy launched a search and the submarine was ... The Soviet nuclear  attack submarine K-278 Komsomolets, the only ... The situation was radioed in  and most of the crew abandoned the ship while it was sinking.
sunken US nuclear submarines;http://wnep.com/2019/07/12/a-sunken-soviet-nuclear-submarine-is-leaking-unusually-high-levels-of-radiation/;A Sunken Soviet Nuclear Submarine Is Leaking Unusually ...;Jul 12, 2019 ... A sunken Soviet nuclear submarine that's been on the seafloor for three decades  is leaking an abnormally high amount of radiation, according ...
sunken US nuclear submarines;http://www.dsa.no/en/news/94845/releases-from-the-sunken-nuclear-submarine-komsomolets;Releases from the sunken nuclear submarine Komsomolets ...;Jul 10, 2019 ... Researchers have documented releases from the sunken Soviet nuclear  submarine Komsomolets. The releases pose no risk to people or the ...
sunken US nuclear submarines;http://www.navytimes.com/news/your-navy/2019/07/03/russia-survivors-rescued-from-secret-sub-after-blaze/;Russia: Survivors rescued from secret sub after blaze;Jul 3, 2019 ... ... secret submersible, a nuclear-powered research submarine called ... Media  reports speculated that it likely has features similar to the U.S. ...
sunken US nuclear submarines;http://bellona.org/news/nuclear-issues/radioactive-waste-and-spent-nuclear-fuel/2015-04-raising-sunken-nuclear-subs-finally-taking-center-stage;Raising sunken nuclear subs finally taking center stage ...;Apr 22, 2015 ... MURMANSK─ Two nuclear submarines lost or sunk by the Russian and Soviet  Navies still lay at the bottom of the sea posing a possible ...
sunken US nuclear submarines;http://www.seacoastonline.com/article/20130310/NEWS/303100355;Sub Thresher's nuclear reactor remains buried at sea - News ...;Mar 10, 2013 ... Courtesy of U.S. Navy ... Thresher (SSN 593) was the first nuclear submarine  ever lost at sea. ... the level of radioactivity “has decayed to a small fraction of  what was present at the time of the sinking,” according to Dougan.
sunken US nuclear submarines;http://www.iflscience.com/editors-blog/this-is-what-happened-when-a-us-nuclear-submarine-crashed-into-an-underwater-mountain/;This Is What Happened When A US Nuclear Submarine ...;May 10, 2019 ... A nuclear sub, an underwater mountain, and a deadly collision. ... This Is What  Happened When A US Nuclear Submarine Crashed Into An ... These actions are  what stopped USS San Francisco from sinking and allowed it to ...
